{
    "_id": "491qhVbjsHnOuMZW",
    "data": {
        "attributes": {
            "ac": {
                "value": 10
            },
            "hardness": 0,
            "hasHealth": false,
            "hp": {
                "details": "",
                "max": 0,
                "temp": 0,
                "tempmax": 0,
                "value": 0
            },
            "stealth": {
                "details": "(trained)",
                "value": 10
            }
        },
        "creatureType": "",
        "details": {
            "description": "An invisible rune imprinted on a door latch releases a powerful electric discharge.",
            "disable": "Thievery DC 20 (expert) to scratch out the rune without allowing electricity to flow, or <i>dispel magic</i> (2nd level; counteract DC 18) to counteract the rune",
            "isComplex": false,
            "level": 3,
            "reset": "",
            "routine": ""
        },
        "flavourText": "",
        "recallKnowledgeText": "",
        "saves": {
            "fortitude": {
                "rank": 0,
                "saveDetail": "",
                "value": 0
            },
            "reflex": {
                "rank": 0,
                "saveDetail": "",
                "value": 0
            },
            "will": {
                "rank": 0,
                "saveDetail": "",
                "value": 0
            }
        },
        "schema": {
            "version": {
                "value": ""
            }
        },
        "sidebarText": "",
        "source": {
            "value": ""
        },
        "statusEffects": [],
        "traits": {
            "ci": [],
            "di": {
                "custom": "",
                "selected": {},
                "value": []
            },
            "dr": [],
            "dv": [],
            "rarity": {
                "value": "common"
            },
            "size": {
                "value": "med"
            },
            "traits": {
                "custom": "",
                "value": [
                    "electricity",
                    "evocation",
                    "magical"
                ]
            }
        }
    },
    "effects": [],
    "flags": {},
    "img": "systems/pf2e/icons/default-icons/hazard.svg",
    "items": [
        {
            "_id": "FzfgLXTt6R8bYmTP",
            "data": {
                "actionCategory": {
                    "value": ""
                },
                "actionType": {
                    "value": "reaction"
                },
                "actions": {
                    "value": ""
                },
                "description": {
                    "chat": "",
                    "unidentified": "",
                    "value": "<p><strong>Trigger</strong> A creature grasps the door latch directly or with a tool. <br /><strong>Effect</strong> The trap deals [[/r 3d12 #electricity]] electricity damage to the triggering creature (<span data-pf2-saving-throw=\"reflex\" data-pf2-dc=\"22\" data-pf2-traits=\"arcane,electricity,evocation,damaging-effect\" data-pf2-label=\"Electrocution DC\" data-pf2-show-dc=\"gm\">basic Reflex</span> save).</p>"
                },
                "requirements": {
                    "value": ""
                },
                "rules": [],
                "slug": null,
                "source": {
                    "value": ""
                },
                "traits": {
                    "custom": "",
                    "rarity": {
                        "value": "common"
                    },
                    "value": [
                        "arcane",
                        "electricity",
                        "evocation"
                    ]
                },
                "trigger": {
                    "value": ""
                },
                "usage": {
                    "value": "held-in-one-hand"
                },
                "weapon": {
                    "value": ""
                }
            },
            "effects": [],
            "flags": {},
            "img": "systems/pf2e/icons/actions/Reaction.webp",
            "name": "Electrocution",
            "sort": 100000,
            "type": "action"
        }
    ],
    "name": "Electric Latch Rune",
    "permission": {
        "default": 0
    },
    "token": {
        "actorId": "491qhVbjsHnOuMZW",
        "actorLink": false,
        "bar1": {
            "attribute": "attributes.hp"
        },
        "bar2": {},
        "brightLight": 0,
        "brightSight": 0,
        "dimLight": 0,
        "dimSight": 0,
        "displayBars": 20,
        "displayName": 20,
        "disposition": 0,
        "flags": {},
        "height": 1,
        "img": "systems/pf2e/icons/default-icons/hazard.svg",
        "lightAlpha": 1,
        "lightAngle": 360,
        "lightAnimation": {
            "intensity": 5,
            "speed": 5
        },
        "lockRotation": false,
        "name": "Electric Latch Rune",
        "randomImg": false,
        "rotation": 0,
        "scale": 1,
        "sightAngle": 360,
        "tint": null,
        "vision": false,
        "width": 1
    },
    "type": "hazard"
}
