{
    "_id": "O0qA1ElCOgYGEBtL",
    "data": {
        "attributes": {
            "ac": {
                "value": 10
            },
            "hardness": 0,
            "hasHealth": false,
            "hp": {
                "details": "",
                "max": 0,
                "temp": 0,
                "tempmax": 0,
                "value": 0
            },
            "stealth": {
                "details": "(expert)",
                "value": 18
            }
        },
        "creatureType": "",
        "details": {
            "description": "A raging spectral inferno arises out of thin air, strengthening all undead creatures within its area. This haunt most often arises from the charred remains of a group of three people who burned to death, whether in a terrible accident or a deliberate execution, and their unavenged souls burn with rage. ",
            "disable": "DC 27 Diplomacy (expert) to temporarily calm the rage of one of the three spirits, or DC 30 Religion (trained) to exorcise one of the spirits; three total successes are required to disable the haunt",
            "isComplex": true,
            "level": 7,
            "reset": "The flames cease 1 minute after all living creatures leave the area, but after 1 hour, the anger and pain simmer up and the haunt is ready to trigger again.",
            "routine": "(1 action) Phantom flames rage across the haunted area, dealing 4d6 fire damage to each living creature within the area (DC 23 basic Will save). Undead creatures in the area are infused with flames for the following round. They gain the fire trait and immunity to fire, and all their attacks deal an additional 1d6 fire damage. Objects in the area are unaffected."
        },
        "flavourText": "",
        "recallKnowledgeText": "",
        "saves": {
            "fortitude": {
                "rank": 0,
                "saveDetail": "",
                "value": 0
            },
            "reflex": {
                "rank": 0,
                "saveDetail": "",
                "value": 0
            },
            "will": {
                "rank": 0,
                "saveDetail": "",
                "value": 0
            }
        },
        "schema": {
            "version": {
                "value": ""
            }
        },
        "sidebarText": "",
        "source": {
            "value": ""
        },
        "statusEffects": [],
        "traits": {
            "ci": [],
            "di": {
                "custom": "",
                "selected": {},
                "value": []
            },
            "dr": [],
            "dv": [],
            "rarity": {
                "value": "common"
            },
            "size": {
                "value": "med"
            },
            "traits": {
                "custom": "",
                "value": [
                    "haunt"
                ]
            }
        }
    },
    "effects": [],
    "flags": {},
    "img": "systems/pf2e/icons/default-icons/hazard.svg",
    "items": [
        {
            "_id": "E8X8ETVNwXuUF08C",
            "data": {
                "actionCategory": {
                    "value": ""
                },
                "actionType": {
                    "value": "reaction"
                },
                "actions": {
                    "value": ""
                },
                "description": {
                    "chat": "",
                    "unidentified": "",
                    "value": "<p><strong>Trigger</strong> A living creature approaches within 10 feet of the remains of a victim of the original fire. <br /><strong>Effect</strong> Memories of the pain suffered by the fire's past victims assault the triggering creature's mind. The creature must attempt a <span data-pf2-saving-throw=\"will\" data-pf2-dc=\"25\" data-pf2-traits=\"divination,mental\" data-pf2-label=\"Searing Agony DC\" data-pf2-show-dc=\"gm\">Will</span> save, and the haunt then rolls initiative.<br /><br /><strong>Critical Success</strong> The creature is unaffected.<br /><strong>Success</strong> The creature is sickened 1.<br /><strong>Failure</strong> The creature is sickened 2.<br /><strong>Critical Failure</strong> The creature is sickened 3, and it is flat-footed for as long as it remains within the haunt's area and for 3 rounds thereafter.</p>"
                },
                "requirements": {
                    "value": ""
                },
                "rules": [],
                "slug": null,
                "source": {
                    "value": ""
                },
                "traits": {
                    "custom": "",
                    "rarity": {
                        "value": "common"
                    },
                    "value": [
                        "divination",
                        "mental"
                    ]
                },
                "trigger": {
                    "value": ""
                },
                "usage": {
                    "value": "held-in-one-hand"
                },
                "weapon": {
                    "value": ""
                }
            },
            "effects": [],
            "flags": {},
            "img": "systems/pf2e/icons/actions/Reaction.webp",
            "name": "Searing Agony",
            "sort": 100000,
            "type": "action"
        }
    ],
    "name": "Eternal Flame",
    "permission": {
        "default": 0
    },
    "token": {
        "actorId": "O0qA1ElCOgYGEBtL",
        "actorLink": false,
        "bar1": {
            "attribute": "attributes.hp"
        },
        "bar2": {},
        "brightLight": 0,
        "brightSight": 0,
        "dimLight": 0,
        "dimSight": 0,
        "displayBars": 20,
        "displayName": 20,
        "disposition": 0,
        "flags": {},
        "height": 1,
        "img": "systems/pf2e/icons/default-icons/hazard.svg",
        "lightAlpha": 1,
        "lightAngle": 360,
        "lightAnimation": {
            "intensity": 5,
            "speed": 5
        },
        "lockRotation": false,
        "name": "Eternal Flame",
        "randomImg": false,
        "rotation": 0,
        "scale": 1,
        "sightAngle": 360,
        "tint": null,
        "vision": false,
        "width": 1
    },
    "type": "hazard"
}
