{
    "_id": "88WyCqU5x1eJ0MK2",
    "data": {
        "boosts": {
            "0": {
                "value": [
                    "cha",
                    "str"
                ]
            },
            "1": {
                "value": [
                    "cha",
                    "con",
                    "dex",
                    "int",
                    "str",
                    "wis"
                ]
            }
        },
        "description": {
            "chat": "",
            "unidentified": "",
            "value": "<p>The bloody games of the arena taught you the art of combat. Before you attained true fame, you departed-or escaped-the arena to explore the world. Your skill at drawing both blood and a crowd's attention pay off in a new adventuring life.</p>\n<p>Choose two ability boosts. One must be to <strong>Strength</strong> or <strong>Charisma</strong>, and one is a free ability boost.</p>\n<p>You're trained in the Performance skill and the Gladiatorial Lore skill. You gain the @Compendium[pf2e.feats-srd.Impressive Performance]{Impressive Performance} skill feat.</p>"
        },
        "items": {
            "6ltd4": {
                "id": "xqAdXRd2gSQcqp5E",
                "img": "systems/pf2e/icons/features/feats/feats.webp",
                "level": "1",
                "name": "Impressive Performance",
                "pack": "pf2e.feats-srd"
            }
        },
        "rules": [],
        "source": {
            "value": ""
        },
        "trainedLore": "Gladatorial Lore",
        "trainedSkills": {
            "value": [
                "prf"
            ]
        },
        "traits": {
            "custom": "",
            "rarity": {
                "value": "common"
            },
            "value": []
        },
        "usage": {
            "value": "held-in-one-hand"
        }
    },
    "effects": [],
    "flags": {},
    "img": "systems/pf2e/icons/default-icons/mystery-man.svg",
    "name": "Gladiator",
    "permission": {
        "default": 0
    },
    "type": "background"
}
