{
    "_id": "RC4l6WsxPn89a1f8",
    "data": {
        "boosts": {
            "0": {
                "value": []
            },
            "1": {
                "value": [
                    "cha",
                    "con",
                    "dex",
                    "int",
                    "str",
                    "wis"
                ]
            }
        },
        "description": {
            "chat": "",
            "unidentified": "",
            "value": "<p>Whether in a monastery, a religious household, or just as part of your everyday life, your upbringing was steeped in the traditions of a faith or philosophy. You might remain committed or you may have turned from your childhood creed, but your skills are still founded in your devotion.</p>\n<p>Choose two ability boosts. One boost must be to an ability specified in the <strong>Divine Ability</strong> entry for your deity, and one is a free ability boost.</p>\n<p>You're trained in your deity's associated skill, and you gain @Compendium[pf2e.feats-srd.Assurance]{Assurance} with that skill. You gain a Lore skill with a subcategory associated with your deity (Abadar Lore, for instance).</p>"
        },
        "items": {
            "ihbaq": {
                "id": "W6Gl9ePmItfDHji0",
                "img": "systems/pf2e/icons/features/feats/feats.webp",
                "level": "1",
                "name": "Assurance",
                "pack": "pf2e.feats-srd"
            }
        },
        "rules": [],
        "source": {
            "value": ""
        },
        "trainedLore": "<Deity> Lore",
        "trainedSkills": {
            "value": []
        },
        "traits": {
            "custom": "",
            "rarity": {
                "value": "common"
            },
            "value": []
        },
        "usage": {
            "value": "held-in-one-hand"
        }
    },
    "effects": [],
    "flags": {},
    "img": "systems/pf2e/icons/default-icons/mystery-man.svg",
    "name": "Raised by Belief",
    "permission": {
        "default": 0
    },
    "type": "background"
}
