{
    "_id": "dfheZ5lK0thQUTVT",
    "data": {
        "MAP": {
            "value": ""
        },
        "ability": {
            "value": "str"
        },
        "baseItem": "dagger",
        "bonus": {
            "value": 0
        },
        "bonusDamage": {
            "value": 0
        },
        "brokenThreshold": {
            "value": 0
        },
        "bulkCapacity": {
            "value": ""
        },
        "collapsed": {
            "value": false
        },
        "containerId": {
            "value": ""
        },
        "damage": {
            "damageType": "piercing",
            "dice": 1,
            "die": "d4",
            "value": ""
        },
        "description": {
            "chat": "",
            "unidentified": "",
            "value": "<p>This long, thin +1 striking @Compendium[pf2e.equipment-srd.Wounding]{Wounding} dagger has a smooth edge on one side and a serrated edge on the other.</p>\n<p>Its persistent bleed damage comes from slicing away long strips of the target's flesh, and it deals [[/r 1d8 #persistent bleed]] persistent bleed damage on a hit instead of 1d6. A creature takes a -2 status penalty to saving throws against diseases for as long as it has persistent bleed damage from this knife.</p>"
        },
        "equipped": {
            "value": false
        },
        "equippedBulk": {
            "value": ""
        },
        "group": {
            "value": "knife"
        },
        "hands": {
            "value": ""
        },
        "hardness": {
            "value": 0
        },
        "hp": {
            "value": 0
        },
        "identification": {
            "misidentified": {},
            "status": "identified",
            "unidentified": {
                "data": {
                    "description": {
                        "value": ""
                    }
                },
                "img": "",
                "name": ""
            }
        },
        "invested": {
            "value": false
        },
        "level": {
            "value": "8"
        },
        "maxHp": {
            "value": 0
        },
        "negateBulk": {
            "value": "0"
        },
        "potencyRune": {
            "value": 1
        },
        "preciousMaterial": {
            "value": ""
        },
        "preciousMaterialGrade": {
            "value": ""
        },
        "price": {
            "value": "480 gp"
        },
        "property1": {
            "critDamage": "",
            "critDamageType": "",
            "critDice": 0,
            "critDie": "",
            "criticalConditionType": "",
            "criticalConditionValue": null,
            "damageType": "bleed",
            "dice": 1,
            "die": "d8",
            "strikeConditionType": "",
            "strikeConditionValue": null,
            "value": "Wounding Persistent Bleed"
        },
        "propertyRune1": {
            "value": "wounding"
        },
        "propertyRune2": {
            "value": ""
        },
        "propertyRune3": {
            "value": ""
        },
        "propertyRune4": {
            "value": ""
        },
        "quantity": {
            "value": "1"
        },
        "range": {
            "value": "10"
        },
        "reload": {
            "value": ""
        },
        "rules": [],
        "size": {
            "value": "med"
        },
        "source": {
            "value": ""
        },
        "splashDamage": {
            "value": 0
        },
        "stackGroup": {
            "value": ""
        },
        "strikingRune": {
            "value": "striking"
        },
        "traits": {
            "custom": "",
            "rarity": {
                "value": "uncommon"
            },
            "value": [
                "agile",
                "finesse",
                "magical",
                "necromancy",
                "thrown-10",
                "versatile-s"
            ]
        },
        "usage": {
            "value": "held-in-one-hand"
        },
        "weaponType": {
            "value": "simple"
        },
        "weight": {
            "value": "1"
        }
    },
    "effects": [],
    "flags": {},
    "img": "systems/pf2e/icons/equipment/weapons/specific-magic-weapons/flaying-knife.webp",
    "name": "Flaying Knife",
    "permission": {
        "default": 0
    },
    "type": "weapon"
}
