{
    "_id": "VDudQ4x2ozosAbTb",
    "data": {
        "baseItem": null,
        "brokenThreshold": {
            "value": 0
        },
        "bulkCapacity": {
            "value": ""
        },
        "collapsed": {
            "value": false
        },
        "containerId": {
            "value": ""
        },
        "description": {
            "chat": "",
            "unidentified": "",
            "value": "<p><span>ight seems to partially penetrate this armor.<br /></span></p>\n<p><span><strong>Activate</strong> <span class=\"pf2-icon\">A</span> command; <strong>Frequency</strong> once per day; <strong>Effect</strong> Whispering the command word, you become invisible for 1 minute, gaining the effects of a 2nd-level @Compendium[pf2e.spells-srd.Invisibility]{Invisibility} spell.<br /></span></p>\n<p><span><strong>Craft Requirements</strong> Supply one casting of <em>invisibility</em>.</span></p>"
        },
        "equipped": {
            "value": false
        },
        "equippedBulk": {
            "value": ""
        },
        "hardness": {
            "value": 0
        },
        "hp": {
            "value": 0
        },
        "identification": {
            "misidentified": {},
            "status": "identified",
            "unidentified": {
                "data": {
                    "description": {
                        "value": ""
                    }
                },
                "img": "",
                "name": ""
            }
        },
        "invested": {
            "value": false
        },
        "level": {
            "value": "8"
        },
        "maxHp": {
            "value": 0
        },
        "negateBulk": {
            "value": "0"
        },
        "preciousMaterial": {
            "value": ""
        },
        "preciousMaterialGrade": {
            "value": ""
        },
        "price": {
            "value": "500 gp"
        },
        "quantity": {
            "value": "1"
        },
        "rules": [],
        "size": {
            "value": "med"
        },
        "source": {
            "value": ""
        },
        "stackGroup": {
            "value": ""
        },
        "traits": {
            "custom": "",
            "rarity": {
                "value": "common"
            },
            "usage": {
                "value": "etched-onto-armor"
            },
            "value": [
                "illusion",
                "magical"
            ]
        },
        "usage": {
            "value": "held-in-one-hand"
        },
        "weight": {
            "value": "-"
        }
    },
    "effects": [],
    "flags": {},
    "img": "systems/pf2e/icons/equipment/runes/armor-property-runes/armor-property-runes.webp",
    "name": "Invisibility",
    "permission": {
        "default": 0
    },
    "type": "equipment"
}
