{
    "_id": "LRSIRUERqBAJ1HGT",
    "data": {
        "baseItem": null,
        "brokenThreshold": {
            "value": 0
        },
        "bulkCapacity": {
            "value": "50"
        },
        "capacity": {
            "type": "weight",
            "value": 0,
            "weightless": false
        },
        "collapsed": {
            "value": false
        },
        "containerId": {
            "value": ""
        },
        "currency": {
            "cp": 0,
            "ep": 0,
            "gp": 0,
            "pp": 0,
            "sp": 0
        },
        "description": {
            "chat": "",
            "unidentified": "",
            "value": "<p>This leather rucksack has icons burned into it, and every time it's taken to a plane it hasn't been to before, a new icon representing that plane scorches into the surface.</p>\n<p>The pack grants you a +3 bonus to Survival checks.</p>\n<p>It also enables you to see the magical traces of creatures' passage, allowing you to Track a creature that has teleported. The GM sets the DC of this check, usually using the level and DC of the teleportation spell. This lets you find the location of the creature's destination, and you can use that destination when casting @Compendium[pf2e.spells-srd.Teleport]{Teleport} or activating the pack, even though you don't know what it looks like.</p>\n<p>The pack contains an extradimensional space with the same properties as a @Compendium[pf2e.equipment-srd.Bag of Holding (Type II)]{Bag of Holding (Type II)}.</p>\n<p>This space contains the contents of a @Compendium[pf2e.equipment-srd.Climbing Kit]{Climbing Kit}. If any components of that kit are removed and not returned, they return to the pack at dawn each day.</p>\n<p><strong>Activate</strong> 10 minutes (command, envision, Interact)</p>\n<p><strong>Effect</strong> As you activate the pack, you can harness up to four willing creatures to the ropes on the pack. At the end of the activation time, the pack casts a 7th-level @Compendium[pf2e.spells-srd.Plane Shift]{Plane Shift} or @Compendium[pf2e.spells-srd.Teleport]{Teleport} spell, transporting you and everyone attached to the pack. Attempt a DC 45 Survival check. On a success, you arrive 25 miles off target using <em>plane shift</em> or halve the distance you're off-target with <em>teleport</em>. On a critical success, you arrive exactly on target</p>\n<hr />\n<p>Automatically applied effects:</p>\n<ul>\n<li>+3 bonus to Survival checks</li>\n</ul>"
        },
        "equipped": {
            "value": false
        },
        "equippedBulk": {
            "value": ""
        },
        "hardness": {
            "value": 0
        },
        "hp": {
            "value": 0
        },
        "identification": {
            "misidentified": {},
            "status": "identified",
            "unidentified": {
                "data": {
                    "description": {
                        "value": ""
                    }
                },
                "img": "",
                "name": ""
            }
        },
        "invested": {
            "value": false
        },
        "level": {
            "value": "17"
        },
        "maxHp": {
            "value": 0
        },
        "negateBulk": {
            "value": "50"
        },
        "preciousMaterial": {
            "value": ""
        },
        "preciousMaterialGrade": {
            "value": ""
        },
        "price": {
            "value": "14,800 gp"
        },
        "quantity": {
            "value": "1"
        },
        "rules": [
            {
                "key": "PF2E.RuleElement.FlatModifier",
                "selector": "survival",
                "type": "item",
                "value": 3
            }
        ],
        "size": {
            "value": "med"
        },
        "source": {
            "value": ""
        },
        "stackGroup": {
            "value": ""
        },
        "traits": {
            "custom": "",
            "rarity": {
                "value": "uncommon"
            },
            "value": [
                "conjuration",
                "extradimensional",
                "invested",
                "magical"
            ]
        },
        "usage": {
            "value": "wornbackpack"
        },
        "weight": {
            "value": "-"
        }
    },
    "effects": [],
    "flags": {},
    "img": "systems/pf2e/icons/equipment/worn-items/other-worn-items/voyagers-pack.webp",
    "name": "Voyager's Pack",
    "permission": {
        "default": 0
    },
    "type": "backpack"
}
