{
    "_id": "pe7Pb0vsbah7L299",
    "data": {
        "attributes": {
            "ac": {
                "value": 0
            },
            "hardness": 0,
            "hasHealth": true,
            "hp": {
                "details": "",
                "max": 10,
                "temp": 0,
                "value": 10
            },
            "stealth": {
                "details": "<p>+8 (trained)</p>",
                "value": 8
            }
        },
        "creatureType": "",
        "details": {
            "description": "<p>The demon lord Urxehl manifests upon Golarion a small region of his Abyssal realm, filled with constantly burning forests lashed by fierce storms and unholy rain that only further feeds the flames. This is a mystical fire, fueled by the presence of Urxehl&rsquo;s minions. Any flames on the map emit concealing smoke in a 10-foot radius around the fire.</p>",
            "disable": "<p>Nature or Performance DC 17 (trained) to remind the Finadar forest of its true self; or Religion, Occultism, or Demon Lore DC 17 (trained) to disrupt the connection to the imposed realm and extinguish one of the five sections of flames on the map. These checks can only be attempted by creatures adjacent to the section, and each attempt takes 2 actions. An extinguished fire still emits concealing smoke for 1 additional round but is no longer hot enough to deal damage. A @Compendium[pf2e.spells-srd.Dispel Magic]{Dispel Magic} spell or a spell with the water trait (2nd level; counteract DC 15) extinguishes a section of flames. If the PCs disable three of the five sections of the flames of Verakivhan, the hazard is too weakened to sustain itself, and the remaining flames disappear. If there are no demons or elementals remaining in the area, the hazard is automatically disabled.</p>",
            "isComplex": true,
            "level": 1,
            "reset": "",
            "routine": "<p><span class=\"pf2-icon\">3</span> Any creature within the flames takes [[/r 1d6+3 #fire]] fire damage, and any creature adjacent to the flames takes [[/r 1d6 #fire]] fire damage (<span data-pf2-saving-throw=\"reflex\" data-pf2-traits=\"damaging-effect,fire\" data-pf2-label=\"Flames of Verakivhan DC\" data-pf2-dc=\"17\" data-pf2-show-dc=\"gm\">basic Reflex</span> save). Additionally, the flames call down a fiery rain that deals [[/r 1d6+3 #fire]] fire damage to a random PC within the planar overlay (<span data-pf2-saving-throw=\"reflex\" data-pf2-traits=\"damaging-effect,fire\" data-pf2-label=\"Flames of Verakivhan DC\" data-pf2-dc=\"17\" data-pf2-show-dc=\"gm\">basic Reflex</span> save). If any PCs attempted to disable the hazard that turn, the fiery rain chooses one of them as its target.</p>"
        },
        "flavourText": "",
        "recallKnowledgeText": "",
        "saves": {
            "fortitude": {
                "rank": 0,
                "saveDetail": "",
                "value": null
            },
            "reflex": {
                "rank": 0,
                "saveDetail": "",
                "value": null
            },
            "will": {
                "rank": 0,
                "saveDetail": "",
                "value": null
            }
        },
        "schema": {
            "version": {
                "value": ""
            }
        },
        "sidebarText": "",
        "source": {
            "value": ""
        },
        "statusEffects": [],
        "traits": {
            "ci": [],
            "di": {
                "custom": "",
                "selected": {},
                "value": []
            },
            "dr": [],
            "dv": [],
            "rarity": {
                "value": "common"
            },
            "size": {
                "value": "med"
            },
            "traits": {
                "custom": "",
                "value": [
                    "magical",
                    "trap"
                ]
            }
        }
    },
    "effects": [],
    "flags": {},
    "img": "systems/pf2e/icons/default-icons/hazard.svg",
    "items": [
        {
            "_id": "OatQgbwqaBAuLTyo",
            "data": {
                "actionCategory": {
                    "value": ""
                },
                "actionType": {
                    "value": "reaction"
                },
                "actions": {
                    "value": ""
                },
                "description": {
                    "value": "<p><strong>Trigger</strong> A creature that is not a demon or elemental enters the planar overlay;</p>\n<p><strong>Effect</strong> Flames ignite throughout the area. The hazard rolls initiative.</p>"
                },
                "requirements": {
                    "value": ""
                },
                "rules": [],
                "slug": null,
                "source": {
                    "value": ""
                },
                "traits": {
                    "custom": "",
                    "rarity": {
                        "value": "common"
                    },
                    "value": []
                },
                "trigger": {
                    "value": ""
                },
                "weapon": {
                    "value": ""
                }
            },
            "effects": [],
            "flags": {},
            "img": "systems/pf2e/icons/actions/Reaction.webp",
            "name": "Ignite",
            "sort": 100000,
            "type": "action"
        }
    ],
    "name": "Flames of Verakivhan (3-4)",
    "permission": {
        "default": 0
    },
    "token": {
        "actorId": "pe7Pb0vsbah7L299",
        "actorLink": false,
        "bar1": {
            "attribute": "attributes.hp"
        },
        "bar2": {},
        "brightLight": 0,
        "brightSight": 0,
        "dimLight": 0,
        "dimSight": 0,
        "displayBars": 20,
        "displayName": 20,
        "disposition": 0,
        "flags": {},
        "height": 1,
        "img": "systems/pf2e/icons/default-icons/hazard.svg",
        "lightAlpha": 1,
        "lightAngle": 360,
        "lightAnimation": {
            "intensity": 5,
            "speed": 5
        },
        "lockRotation": false,
        "name": "Flames of Verakivhan",
        "randomImg": false,
        "rotation": 0,
        "scale": 1,
        "sightAngle": 360,
        "tint": null,
        "vision": false,
        "width": 1
    },
    "type": "hazard"
}
