{
    "_id": "We1Nq7CrqDQHEZxY",
    "data": {
        "attributes": {
            "ac": {
                "value": 0
            },
            "hardness": 17,
            "hasHealth": true,
            "hp": {
                "details": "",
                "max": 38,
                "temp": 0,
                "tempmax": 0,
                "value": 38
            },
            "stealth": {
                "details": "(expert) or Perception DC 27 (expert) to notice the six cleverly hidden sluice gates while they are closed",
                "value": 17
            }
        },
        "creatureType": "",
        "details": {
            "description": "Six sluice gates open to allow thousands of gallons of water to begin flooding the room. The water churns through the room and flows out through three chutes on the south end of the room.",
            "disable": "Thievery DC 28 (expert) twice to close a sluice (on a critical success, a sluice is closed immediately)",
            "isComplex": true,
            "level": 9,
            "reset": "The trap resets if all six sluices are closed. If all the water has drained when this occurs, the water takes many months to refill.",
            "routine": "(6 actions) The trap loses 1 action per disabled or destroyed sluice. On each of its actions, the water rushing from the sluices flows through the room, creating a river of churning water that fills the room to several inches and makes the floor of the chamber into difficult terrain. The water level never rises above this level in the room, as it drains out of the chutes to the south and begins to flood the quarry pit (area J2). On the trap's second turn, the water starts filling the four slave pits in area J2. Each of the trap's actions fills the pits 4 inches (2 feet per round if all sluices are functional). If the slave pits fill to their total depth of 12 feet and the grates over the slave pits aren't open, the slaves begin to drown, dying if they aren't freed in 5 rounds. Once the slave pits are full, the water continues to slowly fill the central area over the course of an hour until it empties the reservoir and floods area J2 to a depth of 15 feet.\r\nOther options beyond disabling or destroying the sluices could prevent the flooding of the quarry pit at your discretion."
        },
        "flavourText": "",
        "recallKnowledgeText": "",
        "saves": {
            "fortitude": {
                "rank": 0,
                "saveDetail": "",
                "value": null
            },
            "reflex": {
                "rank": 0,
                "saveDetail": "",
                "value": null
            },
            "will": {
                "rank": 0,
                "saveDetail": "",
                "value": null
            }
        },
        "schema": {
            "version": {
                "value": ""
            }
        },
        "sidebarText": "",
        "source": {
            "value": ""
        },
        "statusEffects": [],
        "traits": {
            "ci": [],
            "di": {
                "custom": "",
                "selected": {},
                "value": [
                    "critical-hits",
                    "object-immunities",
                    "precision"
                ]
            },
            "dr": [],
            "dv": [],
            "rarity": {
                "value": "common"
            },
            "size": {
                "value": "med"
            },
            "traits": {
                "custom": "",
                "value": [
                    "mechanical"
                ]
            }
        }
    },
    "effects": [],
    "flags": {},
    "img": "systems/pf2e/icons/default-icons/hazard.svg",
    "items": [
        {
            "_id": "v5JDDS5HftErPvPh",
            "data": {
                "actionCategory": {
                    "value": ""
                },
                "actionType": {
                    "value": "reaction"
                },
                "actions": {
                    "value": ""
                },
                "description": {
                    "chat": "",
                    "unidentified": "",
                    "value": "<p><strong>Trigger</strong>: A creature @Compendium[pf2e.actionspf2e.Interact]{Interacts} to throw either the primary lever or backup lever.</p>\n<p><strong>Effect</strong>: The trap rolls initiative.</p>"
                },
                "requirements": {
                    "value": ""
                },
                "rules": [],
                "slug": null,
                "source": {
                    "value": ""
                },
                "traits": {
                    "custom": "",
                    "rarity": {
                        "value": "common"
                    },
                    "selected": {},
                    "value": []
                },
                "trigger": {
                    "value": ""
                },
                "usage": {
                    "value": "held-in-one-hand"
                },
                "weapon": {
                    "value": ""
                }
            },
            "effects": [],
            "flags": {},
            "img": "systems/pf2e/icons/actions/Reaction.webp",
            "name": "Opened Sluices",
            "sort": 100000,
            "type": "action"
        }
    ],
    "name": "Quarry Sluiceway",
    "permission": {
        "default": 0
    },
    "token": {
        "actorId": "We1Nq7CrqDQHEZxY",
        "actorLink": false,
        "bar1": {
            "attribute": "attributes.hp"
        },
        "bar2": {},
        "brightLight": 0,
        "brightSight": 0,
        "dimLight": 0,
        "dimSight": 0,
        "displayBars": 20,
        "displayName": 20,
        "disposition": 0,
        "flags": {},
        "height": 1,
        "img": "systems/pf2e/icons/default-icons/hazard.svg",
        "lightAlpha": 1,
        "lightAngle": 360,
        "lightAnimation": {
            "intensity": 5,
            "speed": 5
        },
        "lockRotation": false,
        "name": "Quarry Sluiceway",
        "randomImg": false,
        "rotation": 0,
        "scale": 1,
        "sightAngle": 360,
        "tint": null,
        "vision": false,
        "width": 1
    },
    "type": "hazard"
}
