{
    "_id": "QapoFh0tbUgMwSIB",
    "data": {
        "description": {
            "chat": "",
            "unidentified": "",
            "value": "<p>Granted by @Compendium[pf2e.equipment-srd.Thurible of Revelation (Greater)]{Thurible of Revelation (Greater)}</p>\n<hr />\n<p>Automatically applied effects:</p>\n<ul>\n<li>gain a +3 item bonus to Religion checks</li>\n</ul>"
        },
        "duration": {
            "expiry": "turn-start",
            "sustained": false,
            "unit": "hours",
            "value": 1
        },
        "level": {
            "value": 18
        },
        "rules": [
            {
                "key": "PF2E.RuleElement.FlatModifier",
                "selector": "religion",
                "type": "item",
                "value": 3
            },
            {
                "key": "PF2E.RuleElement.TokenEffectIcon"
            }
        ],
        "source": {
            "value": ""
        },
        "start": {
            "initiative": null,
            "value": 0
        },
        "traits": {
            "custom": "",
            "rarity": {
                "value": "common"
            },
            "value": []
        }
    },
    "effects": [],
    "flags": {},
    "img": "systems/pf2e/icons/equipment/held-items/thurible-of-revelation.webp",
    "name": "Effect: Thurible of Revelation (Greater)",
    "permission": {
        "default": 0
    },
    "type": "effect"
}
