{
    "_id": "OAN5Fj21PJPhIqRU",
    "data": {
        "description": {
            "chat": "",
            "unidentified": "",
            "value": "<p>Granted by @Compendium[pf2e.equipment-srd.Vermin Repellent Agent (Lesser)]{Vermin Repellent Agent (Lesser)}</p>\n<hr />\n<p>Automatically applied effects:</p>\n<ul>\n<li>gain a +1 item bonus to Fortitude saving throws against poisons</li>\n</ul>"
        },
        "duration": {
            "expiry": "turn-start",
            "sustained": false,
            "unit": "hours",
            "value": 4
        },
        "level": {
            "value": 3
        },
        "rules": [
            {
                "key": "PF2E.RuleElement.TokenEffectIcon"
            },
            {
                "key": "PF2E.RuleElement.FlatModifier",
                "label": "Vermin Repellent Agent (vs. poisons)",
                "predicate": {
                    "all": [
                        "poison"
                    ]
                },
                "selector": "fortitude",
                "type": "item",
                "value": 1
            }
        ],
        "source": {
            "value": ""
        },
        "start": {
            "initiative": null,
            "value": 0
        },
        "traits": {
            "custom": "",
            "rarity": {
                "value": "common"
            },
            "value": []
        }
    },
    "effects": [],
    "flags": {},
    "img": "systems/pf2e/icons/equipment/alchemical-items/alchemical-tools/vermin-repellent-agent.webp",
    "name": "Effect: Vermin Repellent Agent (Lesser)",
    "permission": {
        "default": 0
    },
    "type": "effect"
}
