{
    "_id": "nsFnOLqYSkGWFhLD",
    "data": {
        "actionCategory": {
            "value": ""
        },
        "actionType": {
            "value": "passive"
        },
        "actions": {
            "value": ""
        },
        "description": {
            "chat": "",
            "unidentified": "",
            "value": "<p>The divine grace that flows through you grants reprieve from an affliction.</p>\n<p>When you use @Compendium[pf2e.feats-srd.Mercy]{Mercy}, you can instead attempt to counteract a curse, disease, or poison.</p>"
        },
        "featType": {
            "value": "class"
        },
        "level": {
            "value": 12
        },
        "location": "",
        "prerequisites": {
            "value": [
                {
                    "value": "Mercy"
                }
            ]
        },
        "rules": [],
        "source": {
            "value": ""
        },
        "traits": {
            "custom": "",
            "rarity": {
                "value": "common"
            },
            "value": [
                "champion"
            ]
        }
    },
    "effects": [],
    "flags": {},
    "img": "systems/pf2e/icons/features/feats/feats.webp",
    "name": "Affliction Mercy",
    "permission": {
        "default": 0
    },
    "type": "feat"
}
