{
    "_id": "AmfO4FHmfFr0oNi9",
    "data": {
        "actionCategory": {
            "value": ""
        },
        "actionType": {
            "value": "action"
        },
        "actions": {
            "value": ""
        },
        "description": {
            "chat": "",
            "unidentified": "",
            "value": "<p><strong>Frequency</strong> once per minute</p>\n<hr />\n<p>Your inborn magical nature lets you redirect ambient energies to fuel your spells. If your next action is to Cast a Spell of 5th level or lower that has no duration, you don't expend the spell's slot when you cast it.</p>"
        },
        "featType": {
            "value": "class"
        },
        "level": {
            "value": 20
        },
        "prerequisites": {
            "value": []
        },
        "rules": [],
        "source": {
            "value": ""
        },
        "traits": {
            "custom": "",
            "rarity": {
                "value": "common"
            },
            "value": [
                "metamagic",
                "sorcerer"
            ]
        }
    },
    "effects": [],
    "flags": {},
    "img": "systems/pf2e/icons/features/feats/feats.webp",
    "name": "Bloodline Conduit",
    "permission": {
        "default": 0
    },
    "type": "feat"
}
