{
    "_id": "gt9pvIicabSOe6pB",
    "data": {
        "actionCategory": {
            "value": ""
        },
        "actionType": {
            "value": "action"
        },
        "actions": {
            "value": "1"
        },
        "description": {
            "chat": "",
            "unidentified": "",
            "value": "<p><strong>Requirements</strong> You are wielding a two-handed melee weapon</p>\n<hr />\n<p>Throwing your weight behind your attack, you hit your opponent hard enough to make it stumble back.</p>\n<p>Make a Strike with a two-handed melee weapon. If you hit a target that is your size or smaller, that creature is @Compendium[pf2e.conditionitems.Flat-Footed]{Flat-Footed} until the end of your current turn, and you can automatically @Compendium[pf2e.actionspf2e.Shove]{Shove} it, with the same benefits as the Shove action (including the critical success effect, if your Strike was a critical hit). If you move to follow the target, your movement doesn't trigger reactions. This Strike has the following failure effect.</p>\n<p><strong>Failure</strong> The target becomes flat-footed until the end of your current turn.</p>"
        },
        "featType": {
            "value": "class"
        },
        "level": {
            "value": 2
        },
        "prerequisites": {
            "value": []
        },
        "rules": [],
        "source": {
            "value": ""
        },
        "traits": {
            "custom": "",
            "rarity": {
                "value": "common"
            },
            "value": [
                "fighter",
                "press"
            ]
        }
    },
    "effects": [],
    "flags": {},
    "img": "systems/pf2e/icons/features/feats/feats.webp",
    "name": "Brutish Shove",
    "permission": {
        "default": 0
    },
    "type": "feat"
}
