{
    "_id": "LDUWw2TeEEH0KA6M",
    "data": {
        "actionCategory": {
            "value": ""
        },
        "actionType": {
            "value": "passive"
        },
        "actions": {
            "value": ""
        },
        "description": {
            "chat": "",
            "unidentified": "",
            "value": "<p>You have dealings with a variety of unsavory characters, which you can leverage to trade favors or meet powerful people. When you're in an area where you have connections (typically a settlement where you've spent downtime building connections or possibly another area in the same nation), you can attempt a Society check to arrange a meeting with an important criminal, such as a thieves' guild leader, or ask for a favor in exchange for a later favor of your contact's choice. The GM decides the DC based on the difficulty of the favor and the figure's prominence.</p>"
        },
        "featType": {
            "value": "skill"
        },
        "level": {
            "value": 2
        },
        "location": "",
        "prerequisites": {
            "value": [
                {
                    "value": "expert in Society"
                },
                {
                    "value": "Streetwise"
                }
            ]
        },
        "rules": [],
        "source": {
            "value": ""
        },
        "traits": {
            "custom": "",
            "rarity": {
                "value": "uncommon"
            },
            "value": [
                "general",
                "skill"
            ]
        }
    },
    "effects": [],
    "flags": {},
    "img": "systems/pf2e/icons/features/feats/feats.webp",
    "name": "Criminal Connections",
    "permission": {
        "default": 0
    },
    "type": "feat"
}
