{
    "_id": "PSpwdvuddC9kXONz",
    "data": {
        "actionCategory": {
            "value": ""
        },
        "actionType": {
            "value": "reaction"
        },
        "actions": {
            "value": ""
        },
        "description": {
            "chat": "",
            "unidentified": "",
            "value": "<p><strong>Frequency</strong> once per 10 minutes<br /><strong>Trigger</strong> You take damage that would reduce you to 0 Hit Points.</p>\n<hr />\n<p>You continue to fight when others would fall. Just before taking the triggering damage, you gain temporary Hit Points equal to twice your level. If you have Hit Points remaining after gaining these temporary Hit Points, you aren't knocked unconscious, nor do you suffer the other effects of being reduced to 0 Hit Points. Any temporary Hit Points that remain after applying the damage last for up to 4 rounds.</p>"
        },
        "featType": {
            "value": "archetype"
        },
        "level": {
            "value": "14"
        },
        "prerequisites": {
            "value": [
                {
                    "value": "Swordmaster Dedication "
                }
            ]
        },
        "rules": [],
        "source": {
            "value": ""
        },
        "traits": {
            "custom": "",
            "rarity": {
                "value": "common"
            },
            "value": [
                "archetype"
            ]
        }
    },
    "effects": [],
    "flags": {},
    "img": "systems/pf2e/icons/features/feats/feats.webp",
    "name": "Death's Door",
    "permission": {
        "default": 0
    },
    "type": "feat"
}
