{
    "_id": "iy9XKih5jIAdv67c",
    "data": {
        "actionCategory": {
            "value": ""
        },
        "actionType": {
            "value": "passive"
        },
        "actions": {
            "value": ""
        },
        "description": {
            "chat": "",
            "unidentified": "",
            "value": "<p>You can give others a glimpse of the impossible conflicts and unchecked power that courses through your body. You learn the @Compendium[pf2e.spells-srd.Debilitating Dichotomy]{Debilitating Dichotomy}<em> </em>revelation spell. Increase the number of Focus Points in your focus pool by 1.</p>"
        },
        "featType": {
            "value": "class"
        },
        "level": {
            "value": "8"
        },
        "prerequisites": {
            "value": []
        },
        "rules": [],
        "source": {
            "value": ""
        },
        "traits": {
            "custom": "",
            "rarity": {
                "value": "common"
            },
            "value": [
                "oracle"
            ]
        }
    },
    "effects": [],
    "flags": {},
    "img": "systems/pf2e/icons/features/feats/feats.webp",
    "name": "Debilitating Dichotomy",
    "permission": {
        "default": 0
    },
    "type": "feat"
}
