{
    "_id": "Q1lGguNI4SqPwgVn",
    "data": {
        "actionCategory": {
            "value": ""
        },
        "actionType": {
            "value": "passive"
        },
        "actions": {
            "value": ""
        },
        "description": {
            "chat": "",
            "unidentified": "",
            "value": "<p>The blood of the Dragon Kings runs strong in your veins. Your draconic heritage is clearly visible, with hair that is almost entirely crimson, azure, or the like, and that shines like a dragon's scales. You can cast the @Compendium[pf2e.spells-srd.Dragon Breath]{Dragon Breath} sorcerer bloodline spell as an innate arcane spell once per day, but you can use only the dragon breath that is associated with your heritage and that matches the energy type of your Dragon Spit feat. At 12th level and every 3 levels thereafter, the spell is heightened by an additional spell level.</p>"
        },
        "featType": {
            "value": "ancestry"
        },
        "level": {
            "value": "9"
        },
        "prerequisites": {
            "value": [
                {
                    "value": "Dragon Spit"
                }
            ]
        },
        "rules": [],
        "source": {
            "value": ""
        },
        "traits": {
            "custom": "",
            "rarity": {
                "value": "common"
            },
            "value": [
                "human"
            ]
        }
    },
    "effects": [],
    "flags": {},
    "img": "systems/pf2e/icons/features/feats/feats.webp",
    "name": "Dragon Prince",
    "permission": {
        "default": 0
    },
    "type": "feat"
}
