{
    "_id": "txLcSHu6kEfmrJj1",
    "data": {
        "actionCategory": {
            "value": ""
        },
        "actionType": {
            "value": "passive"
        },
        "actions": {
            "value": ""
        },
        "description": {
            "chat": "",
            "unidentified": "",
            "value": "<p>You move as fast and as high as the wind itself. You're permanently @Compendium[pf2e.conditionitems.Quickened]{Quickened}.</p>\n<p>You can use your extra action to Stride or @Compendium[pf2e.actionspf2e.Leap]{Leap}, to provide one of the actions needed for a @Compendium[pf2e.actionspf2e.High Jump]{High Jump} or @Compendium[pf2e.actionspf2e.Long Jump]{Long Jump}</p>"
        },
        "featType": {
            "value": "class"
        },
        "level": {
            "value": 20
        },
        "location": "",
        "prerequisites": {
            "value": []
        },
        "rules": [],
        "source": {
            "value": ""
        },
        "traits": {
            "custom": "",
            "rarity": {
                "value": "common"
            },
            "value": [
                "monk"
            ]
        }
    },
    "effects": [],
    "flags": {},
    "img": "systems/pf2e/icons/features/feats/feats.webp",
    "name": "Enduring Quickness",
    "permission": {
        "default": 0
    },
    "type": "feat"
}
