{
    "_id": "QFFbmQ5yrBSjbAj3",
    "data": {
        "actionCategory": {
            "value": ""
        },
        "actionType": {
            "value": "passive"
        },
        "actions": {
            "value": ""
        },
        "description": {
            "chat": "",
            "unidentified": "",
            "value": "<p>You've sworn an oath to slay the alien abominations that lurk in the remote corners of Golarion. Add the following tenet to your champion's code, after the other tenets. \"You must slay evil aberrations you encounter as long as you have a reasonable chance of success.\"</p>\n<p>The resistance you gain from @Compendium[pf2e.actionspf2e.Glimpse of Redemption]{Glimpse of Redemption} against damage from an evil aberration is 7 + your level.</p>\n<p>You don't consider evil aberrations to be legitimate authorities, even in nations they rule.</p>"
        },
        "featType": {
            "value": "class"
        },
        "level": {
            "value": 2
        },
        "location": "",
        "prerequisites": {
            "value": [
                {
                    "value": "tenets of good"
                },
                {
                    "value": "redeemer cause"
                }
            ]
        },
        "rules": [],
        "source": {
            "value": ""
        },
        "traits": {
            "custom": "",
            "rarity": {
                "value": "common"
            },
            "value": [
                "champion",
                "oath"
            ]
        }
    },
    "effects": [],
    "flags": {},
    "img": "systems/pf2e/icons/features/feats/feats.webp",
    "name": "Esoteric Oath (Redeemer)",
    "permission": {
        "default": 0
    },
    "type": "feat"
}
