{
    "_id": "amf2zZuW299eiHAZ",
    "data": {
        "actionCategory": {
            "value": ""
        },
        "actionType": {
            "value": "reaction"
        },
        "actions": {
            "value": ""
        },
        "description": {
            "chat": "",
            "unidentified": "",
            "value": "<p><strong>Trigger</strong> You fail, but don't critically fail, an attempt to Disable a Device on a trap.</p>\n<hr />\n<p>You intentionally set off the trap, but you take special precautions to protect yourself and your allies from the trap's effects. For the next 2 rounds, if the trap rolls a critical success on an attack roll, it gets a normal success instead, and if anyone rolls a critical failure on their saving throw against the trap, they get a normal failure instead.</p>"
        },
        "featType": {
            "value": "archetype"
        },
        "level": {
            "value": "10"
        },
        "prerequisites": {
            "value": [
                {
                    "value": "Pathfinder Agent Dedication"
                }
            ]
        },
        "rules": [],
        "source": {
            "value": ""
        },
        "traits": {
            "custom": "",
            "rarity": {
                "value": "uncommon"
            },
            "value": [
                "archetype"
            ]
        }
    },
    "effects": [],
    "flags": {},
    "img": "systems/pf2e/icons/features/feats/feats.webp",
    "name": "Everyone Duck!",
    "permission": {
        "default": 0
    },
    "type": "feat"
}
