{
    "_id": "Ux73dmoF8KnavyUD",
    "data": {
        "actionCategory": {
            "value": ""
        },
        "actionType": {
            "value": "passive"
        },
        "actions": {
            "value": ""
        },
        "description": {
            "chat": "",
            "unidentified": "",
            "value": "<p>You move more quickly on foot. Your Speed increases by 5 feet.</p>\n<p>Automatically applied effects:</p>\n<ul>\n<li>+5 untyped bonus to land speed</li>\n</ul>"
        },
        "featType": {
            "value": "general"
        },
        "level": {
            "value": 1
        },
        "location": "",
        "prerequisites": {
            "value": []
        },
        "rules": [
            {
                "key": "PF2E.RuleElement.FlatModifier",
                "selector": "land-speed",
                "value": 5
            }
        ],
        "source": {
            "value": ""
        },
        "traits": {
            "custom": "",
            "rarity": {
                "value": "common"
            },
            "value": [
                "general"
            ]
        }
    },
    "effects": [],
    "flags": {},
    "img": "systems/pf2e/icons/features/feats/feats.webp",
    "name": "Fleet",
    "permission": {
        "default": 0
    },
    "type": "feat"
}
