{
    "_id": "l8KQgN8icNrzYIav",
    "data": {
        "actionCategory": {
            "value": ""
        },
        "actionType": {
            "value": "passive"
        },
        "actions": {
            "value": ""
        },
        "description": {
            "chat": "",
            "unidentified": "",
            "value": "<p>You have trained your mind and body to tolerate polymorph magic for longer periods of time, so long as you prepare for the change appropriately.</p>\n<p>When preparing a polymorph spell that lasts 1 minute and grants a battle form, you can prepare the spell in a slot 2 levels higher than normal. This doesn't grant any of the normal benefits of heightening a spell, but the spell lasts up to 10 minutes.</p>\n<p>For example, if you prepared @Compendium[pf2e.spells-srd.Animal Form]{Animal Form} in a 4th-level slot with Form Retention, you would cast a 2nd-level <em>animal form</em> that lasts for up to 10 minutes. If the spell can be Dismissed, that doesn't change.</p>"
        },
        "featType": {
            "value": "class"
        },
        "level": {
            "value": "8"
        },
        "prerequisites": {
            "value": []
        },
        "rules": [],
        "source": {
            "value": ""
        },
        "traits": {
            "custom": "",
            "rarity": {
                "value": "common"
            },
            "value": [
                "wizard"
            ]
        }
    },
    "effects": [],
    "flags": {},
    "img": "systems/pf2e/icons/features/feats/feats.webp",
    "name": "Form Retention",
    "permission": {
        "default": 0
    },
    "type": "feat"
}
