{
    "_id": "cQptGH6RUYZmS41Q",
    "data": {
        "actionCategory": {
            "value": ""
        },
        "actionType": {
            "value": "passive"
        },
        "actions": {
            "value": ""
        },
        "description": {
            "chat": "",
            "unidentified": "",
            "value": "<p>Your throat has multiple separate chambers that can give your voice an eerie echo. You can be clearly heard at distances of up to 300 feet regardless of ambient sound, although your voice doesn't penetrate a magical @Compendium[pf2e.spells-srd.Silence]{Silence} effect.</p>"
        },
        "featType": {
            "value": "archetype"
        },
        "level": {
            "value": 4
        },
        "prerequisites": {
            "value": [
                {
                    "value": "Oozemorph Dedication"
                },
                {
                    "value": "trained in Performance"
                }
            ]
        },
        "rules": [],
        "source": {
            "value": ""
        },
        "traits": {
            "custom": "",
            "rarity": {
                "value": "common"
            },
            "selected": {
                "archetype": "Archetype",
                "skill": "Skill"
            },
            "value": [
                "archetype",
                "skill"
            ]
        }
    },
    "effects": [],
    "flags": {},
    "img": "systems/pf2e/icons/features/feats/feats.webp",
    "name": "Hideous Ululation",
    "permission": {
        "default": 0
    },
    "type": "feat"
}
