{
    "_id": "MwjnRpVn3br88Caj",
    "data": {
        "actionCategory": {
            "value": ""
        },
        "actionType": {
            "value": "free"
        },
        "actions": {
            "value": ""
        },
        "description": {
            "chat": "",
            "unidentified": "",
            "value": "<p><strong>Frequency</strong> once per day<br /><strong>Trigger</strong> Your turn begins.</p>\n<hr />\n<p>Illusion magic comes to you so naturally that you can effortlessly sustain your magical ruses. You immediately gain the effects of a @Compendium[pf2e.actionspf2e.Sustain a Spell]{Sustain a Spell} action to extend the duration of one of your active illusion spells.</p>"
        },
        "featType": {
            "value": "ancestry"
        },
        "level": {
            "value": "5"
        },
        "prerequisites": {
            "value": [
                {
                    "value": "Illusion Sense"
                }
            ]
        },
        "rules": [],
        "source": {
            "value": ""
        },
        "traits": {
            "custom": "",
            "rarity": {
                "value": "common"
            },
            "value": [
                "gnome"
            ]
        }
    },
    "effects": [],
    "flags": {},
    "img": "systems/pf2e/icons/features/feats/feats.webp",
    "name": "Intuitive Illusions",
    "permission": {
        "default": 0
    },
    "type": "feat"
}
