{
    "_id": "Zz7isE8Td2xDWqR8",
    "data": {
        "actionCategory": {
            "value": ""
        },
        "actionType": {
            "value": "passive"
        },
        "actions": {
            "value": ""
        },
        "description": {
            "chat": "",
            "unidentified": "",
            "value": "<p>You’ve picked up a few magical tricks. During your daily preparations, choose @Compendium[pf2e.spells-srd.Daze]{Daze}, @Compendium[pf2e.spells-srd.Forbidding Ward]{Forbidding Ward}, or @Compendium[pf2e.spells-srd.Ghost Sound]{Ghost Sound}. Until your next daily preparations, you can cast this cantrip as a divine innate spell at will. A cantrip is heightened to a spell level equal to half your level rounded up.</p>"
        },
        "featType": {
            "value": "ancestry"
        },
        "level": {
            "value": 1
        },
        "location": "",
        "prerequisites": {
            "value": []
        },
        "rules": [],
        "source": {
            "value": ""
        },
        "traits": {
            "custom": "",
            "rarity": {
                "value": "common"
            },
            "value": [
                "kitsune"
            ]
        },
        "usage": {
            "value": ""
        }
    },
    "effects": [],
    "flags": {},
    "img": "systems/pf2e/icons/features/feats/feats.webp",
    "name": "Kitsune Spell Familiarity",
    "permission": {
        "default": 0
    },
    "type": "feat"
}
