{
    "_id": "XHaxSBOaFMnBbBKt",
    "data": {
        "actionCategory": {
            "value": ""
        },
        "actionType": {
            "value": "passive"
        },
        "actions": {
            "value": ""
        },
        "description": {
            "chat": "",
            "unidentified": "",
            "value": "<p>You can instantly grow or shrink your hair, eyebrows, beard, or mustache by up to several feet and manipulate your hair for use as a weapon, though your control isn't fine enough for more dexterous tasks.</p>\n<p>You gain a hair unarmed attack that deals <a class=\"inline-roll roll\" data-mode=\"roll\" data-flavor=\"bludgeoning\" data-formula=\"1d4\" title=\"bludgeoning\"><i class=\"fas fa-dice-d20\"></i> 1d4</a> bludgeoning damage; is in the brawling group; and has the agile, disarm, finesse, trip, and unarmed traits.</p>"
        },
        "featType": {
            "value": "class"
        },
        "level": {
            "value": "2"
        },
        "prerequisites": {
            "value": []
        },
        "rules": [],
        "source": {
            "value": ""
        },
        "traits": {
            "custom": "",
            "rarity": {
                "value": "common"
            },
            "value": [
                "witch"
            ]
        }
    },
    "effects": [],
    "flags": {},
    "img": "systems/pf2e/icons/features/feats/feats.webp",
    "name": "Living Hair",
    "permission": {
        "default": 0
    },
    "type": "feat"
}
