{
    "_id": "7AuOURsTkkjrRekp",
    "data": {
        "actionCategory": {
            "value": ""
        },
        "actionType": {
            "value": "passive"
        },
        "actions": {
            "value": ""
        },
        "description": {
            "chat": "",
            "unidentified": "",
            "value": "<p>Staying on pitch, proper breath control, and remembering the words are all less important than the real measure of a good singer: volume! The range of your Goblin Song is increased to 60 feet, and you can target one additional enemy when you use it.</p>"
        },
        "featType": {
            "value": "ancestry"
        },
        "level": {
            "value": "5"
        },
        "prerequisites": {
            "value": [
                {
                    "value": "Goblin Song"
                }
            ]
        },
        "rules": [],
        "source": {
            "value": ""
        },
        "traits": {
            "custom": "",
            "rarity": {
                "value": "common"
            },
            "value": [
                "goblin"
            ]
        }
    },
    "effects": [],
    "flags": {},
    "img": "systems/pf2e/icons/features/feats/feats.webp",
    "name": "Loud Singer",
    "permission": {
        "default": 0
    },
    "type": "feat"
}
