{
    "_id": "ASWqQ6RB7cfCsUo0",
    "data": {
        "actionCategory": {
            "value": ""
        },
        "actionType": {
            "value": "action"
        },
        "actions": {
            "value": "1"
        },
        "description": {
            "chat": "",
            "unidentified": "",
            "value": "<p>You place your body between your friends and your enemies, protecting your allies against oncoming attacks. You choose one adjacent ally. That ally gains a +1 circumstance bonus to AC until the start of your next turn or until that ally is no longer adjacent to you, whichever comes first. You can only protect a single ally in this way. If you choose to Protect a different Ally, the previous ally loses the bonus to AC.</p>"
        },
        "featType": {
            "value": "archetype"
        },
        "level": {
            "value": "8"
        },
        "prerequisites": {
            "value": [
                {
                    "value": "Swordmaster Dedication"
                }
            ]
        },
        "rules": [],
        "source": {
            "value": ""
        },
        "traits": {
            "custom": "",
            "rarity": {
                "value": "common"
            },
            "value": [
                "archetype"
            ]
        }
    },
    "effects": [],
    "flags": {},
    "img": "systems/pf2e/icons/features/feats/feats.webp",
    "name": "Protect Ally",
    "permission": {
        "default": 0
    },
    "type": "feat"
}
