{
    "_id": "Tl8yckXeTCHnwrlM",
    "data": {
        "actionCategory": {
            "value": ""
        },
        "actionType": {
            "value": "action"
        },
        "actions": {
            "value": "2"
        },
        "description": {
            "chat": "",
            "unidentified": "",
            "value": "<p><strong>Frequency</strong>: Once per day.</p>\n<hr />\n<p>To be a tengu is to be unburdened by the concerns of the world below. You grow a pair of magical wings or expand your existing ones. For 5 minutes, you gain a @Compendium[pf2e.actionspf2e.Fly]{Fly} Speed equal to your land Speed or 20 feet, whichever is greater.</p>"
        },
        "featType": {
            "value": "ancestry"
        },
        "level": {
            "value": "9"
        },
        "prerequisites": {
            "value": [
                {
                    "value": "skyborn tengu heritage"
                }
            ]
        },
        "rules": [],
        "source": {
            "value": ""
        },
        "traits": {
            "custom": "",
            "rarity": {
                "value": "common"
            },
            "value": [
                "morph",
                "primal",
                "tengu",
                "transmutation"
            ]
        }
    },
    "effects": [],
    "flags": {},
    "img": "systems/pf2e/icons/features/feats/feats.webp",
    "name": "Soaring Flight",
    "permission": {
        "default": 0
    },
    "type": "feat"
}
