{
    "_id": "FJdcQU6yjDVDBC4r",
    "data": {
        "actionCategory": {
            "value": ""
        },
        "actionType": {
            "value": "action"
        },
        "actions": {
            "value": "1"
        },
        "description": {
            "chat": "",
            "unidentified": "",
            "value": "<p>If the next action you use is to Cast a Spell from your spell slots that damages other creatures, you can bend some of that spell's offensive energy, protecting allies in the area and boosting your own defenses against certain foes. Select any number of targets of the spell and reduce the spell's damage to those targets by an amount equal to the spell's level. Until your next turn, when one of those targets damages you, that damage is reduced by twice the spell's level.</p>"
        },
        "featType": {
            "value": "archetype"
        },
        "level": {
            "value": 6
        },
        "prerequisites": {
            "value": [
                {
                    "value": "Magaambyan Attendant Dedication"
                },
                {
                    "value": "Tempest-Sun Mages affiliation"
                }
            ]
        },
        "rules": [],
        "source": {
            "value": ""
        },
        "traits": {
            "custom": "",
            "rarity": {
                "value": "common"
            },
            "value": [
                "archetype",
                "metamagic"
            ]
        }
    },
    "effects": [],
    "flags": {},
    "img": "systems/pf2e/icons/features/feats/feats.webp",
    "name": "Tempest-Sun Redirection",
    "permission": {
        "default": 0
    },
    "type": "feat"
}
