{
    "_id": "VXA50vhIRCBt4vvP",
    "data": {
        "actionCategory": {
            "value": ""
        },
        "actionType": {
            "value": "action"
        },
        "actions": {
            "value": "1"
        },
        "description": {
            "chat": "",
            "unidentified": "",
            "value": "<p>You attack with a flashy assault that leaves your target off balance. Make a melee @Compendium[pf2e.actionspf2e.Strike]{Strike}. If you hit and deal damage, the target is @Compendium[pf2e.conditionitems.Flat-Footed]{Flat-Footed} until the end of your next turn.</p>"
        },
        "featType": {
            "value": "class"
        },
        "level": {
            "value": "2"
        },
        "prerequisites": {
            "value": []
        },
        "rules": [],
        "source": {
            "value": ""
        },
        "traits": {
            "custom": "",
            "rarity": {
                "value": "common"
            },
            "selected": {
                "finisher": "Finisher",
                "swashbuckler": "Swashbuckler"
            },
            "value": [
                "finisher",
                "swashbuckler"
            ]
        }
    },
    "effects": [],
    "flags": {},
    "img": "systems/pf2e/icons/features/feats/feats.webp",
    "name": "Unbalancing Finisher",
    "permission": {
        "default": 0
    },
    "type": "feat"
}
