{
    "_id": "Lbpm0OrQb4u2LVtj",
    "data": {
        "actionCategory": {
            "value": ""
        },
        "actionType": {
            "value": "reaction"
        },
        "actions": {
            "value": ""
        },
        "description": {
            "chat": "",
            "unidentified": "",
            "value": "<section class=\"details\">\n<p><strong>Frequency</strong> once per hour</p>\n<p><strong>Trigger</strong> You take damage or cast a <a class=\"btn-inform2\" tabindex=\"0\" title=\"\" role=\"button\" data-trigger=\"focus\" data-toggle=\"popover\" data-boundary=\"window\" data-placement=\"auto\" data-html=\"true\" data-content=\"<p>An instinctual connection to and faith in the world, the cycle of day and night, the turning of the seasons, and the natural selection of predator and prey drive the <em>primal</em> tradition. Druids are the most iconic <em>primal</em> spellcasters, calling upon the magic of nature through deep faith and a connection to the plants and animals around them, and <em>primal</em> sorcerers call upon their fey or beast blood to harness the same natural energies.</p>\" data-original-title=\"<strong>magical tradition: primal</strong>\">primal</a> spell.</p>\n<hr /></section>\n<section class=\"content\">\n<p>The life-giving properties of the aeon orbs flourish within you. Small plants or fungi magically appear on all surfaces in a 60-foot emanation around you. This life withers after 1 day unless the environment can support it. You can choose one of the following options each time you use this feat.</p>\n<ul>\n<li>You can cause any number of 5-foot squares in the area to be light undergrowth, which is difficult terrain and provides lesser cover.</li>\n<li>You can cause a tree or giant mushroom to appear in any unoccupied location in the area; it occupies an entire 5-foot square and provides standard cover. The tree or mushroom has 5 Hardness and 50 Hit Points.</li>\n</ul>\n</section>"
        },
        "featType": {
            "value": "class"
        },
        "level": {
            "value": "20"
        },
        "prerequisites": {
            "value": []
        },
        "rules": [],
        "source": {
            "value": ""
        },
        "traits": {
            "custom": "",
            "rarity": {
                "value": "uncommon"
            },
            "selected": {
                "druid": "Druid"
            },
            "value": [
                "druid"
            ]
        }
    },
    "effects": [],
    "flags": {},
    "img": "systems/pf2e/icons/features/feats/feats.webp",
    "name": "Verdant Presence",
    "permission": {
        "default": 0
    },
    "type": "feat"
}
