{
    "_id": "PpMybW2sh3yjfVJz",
    "data": {
        "actionCategory": {
            "value": ""
        },
        "actionType": {
            "value": "passive"
        },
        "actions": {
            "value": ""
        },
        "description": {
            "chat": "",
            "unidentified": "",
            "value": "<p>You have exceptional talent with one type of performance. You gain a +1 circumstance bonus when orating. If you are a master in Performance, this bonus increases to +2.</p>\n<hr />\n<p><strong>Example performances</strong> Epic, ode, poetry, storytelling</p>\n<p>If it's unclear whether the specialty applies, the GM decides.</p>"
        },
        "featType": {
            "value": "skill"
        },
        "level": {
            "value": 1
        },
        "location": "",
        "prerequisites": {
            "value": [
                {
                    "value": "trained in Performance"
                }
            ]
        },
        "rules": [
            {
                "key": "PF2E.RuleElement.FlatModifier",
                "predicate": {
                    "all": [
                        "oratory"
                    ]
                },
                "selector": "performance",
                "type": "circumstance",
                "value": {
                    "brackets": [
                        {
                            "end": 4,
                            "start": 3,
                            "value": 2
                        },
                        {
                            "end": 2,
                            "start": 1,
                            "value": 1
                        }
                    ],
                    "field": "actor|data.skills.prf.rank"
                }
            }
        ],
        "source": {
            "value": ""
        },
        "traits": {
            "custom": "",
            "rarity": {
                "value": "common"
            },
            "value": [
                "general",
                "skill"
            ]
        }
    },
    "effects": [],
    "flags": {},
    "img": "systems/pf2e/icons/features/feats/feats.webp",
    "name": "Virtuosic Performer (Oratory)",
    "permission": {
        "default": 0
    },
    "type": "feat"
}
