{
    "_id": "uJpghjJtNbqKUxRd",
    "data": {
        "actionCategory": {
            "value": ""
        },
        "actionType": {
            "value": "action"
        },
        "actions": {
            "value": "2"
        },
        "description": {
            "chat": "",
            "unidentified": "",
            "value": "<p><strong>Requirements</strong> You are in @Compendium[pf2e.feats-srd.Wolf Stance]{Wolf Stance}</p>\n<hr />\n<p>You rip your enemy off their feet.</p>\n<p>Make a wolf jaw Strike. Your wolf jaw gains the fatal d12 trait for this Strike, and if the attack succeeds, you knock the target @Compendium[pf2e.conditionitems.Prone]{Prone}.</p>"
        },
        "featType": {
            "value": "class"
        },
        "level": {
            "value": 6
        },
        "location": "",
        "prerequisites": {
            "value": [
                {
                    "value": "Wolf Stance"
                }
            ]
        },
        "rules": [
            {
                "key": "PF2E.RuleElement.ToggleProperty",
                "label": "Use Wolf Drag",
                "property": "flags.pf2e.rollOptions.damage-roll.wolf-drag"
            },
            {
                "critical": true,
                "diceNumber": 1,
                "key": "PF2E.RuleElement.DamageDice",
                "override": {
                    "dieSize": "d12"
                },
                "predicate": {
                    "all": [
                        "wolf-drag"
                    ]
                },
                "selector": "damage"
            }
        ],
        "source": {
            "value": ""
        },
        "traits": {
            "custom": "",
            "rarity": {
                "value": "common"
            },
            "value": [
                "monk"
            ]
        }
    },
    "effects": [],
    "flags": {},
    "img": "systems/pf2e/icons/features/feats/feats.webp",
    "name": "Wolf Drag",
    "permission": {
        "default": 0
    },
    "type": "feat"
}
