{
    "_id": "PoHos7qriDzQN7Gw",
    "data": {
        "actionCategory": {
            "value": ""
        },
        "actionType": {
            "value": "passive"
        },
        "actions": {
            "value": ""
        },
        "description": {
            "chat": "",
            "unidentified": "",
            "value": "<p><strong>Major Curse</strong>: You are useful only as a beacon of destruction.</p>\n<p>You are permanently @Compendium[pf2e.conditionitems.Confused]{Confused}, rampaging against anything and everything in your sight, and you deal an additional 18 damage with your unarmed and weapon Strikes.</p>"
        },
        "featType": {
            "value": "curse"
        },
        "level": {
            "value": "0"
        },
        "prerequisites": {
            "value": []
        },
        "rules": [],
        "source": {
            "value": ""
        },
        "traits": {
            "custom": "",
            "rarity": {
                "value": "common"
            },
            "selected": {},
            "value": []
        }
    },
    "effects": [],
    "flags": {},
    "img": "systems/pf2e/icons/deity/Rovagug.webp",
    "name": "Rovagug - Major Curse",
    "permission": {
        "default": 0
    },
    "type": "feat"
}
