{
    "_id": "sQfjTMDaZbT9DThq",
    "data": {
        "additionalLanguages": {
            "count": 0,
            "custom": "",
            "value": [
                "draconic",
                "dwarven",
                "gnoll",
                "gnomish",
                "halfling",
                "orcish"
            ]
        },
        "boosts": {
            "0": {
                "value": [
                    "cha"
                ]
            },
            "1": {
                "value": [
                    "dex"
                ]
            },
            "2": {
                "value": [
                    "str",
                    "dex",
                    "con",
                    "int",
                    "wis",
                    "cha"
                ]
            }
        },
        "description": {
            "chat": "",
            "unidentified": "",
            "value": "<p><em>The convoluted histories other people cling to don't interest goblins. These small folk live in the moment, and they prefer tall tales over factual records. The wars of a few decades ago might as well be from the ancient past. Misunderstood by other people, goblins are happy how they are. Goblin virtues are about being present, creative, and honest. They strive to lead fulfilled lives, rather than worrying about how their journeys will end. To tell stories, not nitpick the facts. To be small, but dream big.</em></p>\n<hr />\n<p>Goblins have a reputation as simple creatures who love songs, fire, and eating disgusting things and who hate reading, dogs, and horses—and there are a great many for whom this description fits perfectly. However, great changes have come to goblinkind, and more and more goblins resist conformity to these stereotypes. Even among goblins that are more worldly, many still exemplify their old ways in some small manner, just to a more sensible degree. Some goblins remain deeply fascinated with fire or fearlessly devour a meal that might turn others' stomachs. Others are endless tinkerers and view their companions' trash as the components of gadgets yet to be made.</p>\n<p>Though goblins' culture has splintered radically, their reputation has changed little. As such, goblins who travel to larger cities are frequently subjected to derision, and many work twice as hard at proving their worth.</p>\n<p>If you want a character who is eccentric, enthusiastic, and fun-loving, you should play a goblin.</p>\n<h2>You Might...</h2>\n<ul>\n<li>Strive to prove that you have a place among other civilized peoples, perhaps even to yourself.</li>\n<li>Fight tooth and nail—sometimes literally—to protect yourself and your friends from danger.</li>\n<li>Lighten the heavy emotional burdens others carry (and amuse yourself) with antics and pranks.</li>\n</ul>\n<h2>Others Probably...</h2>\n<ul>\n<li>Work to ensure you don't accidentally (or intentionally) set too many things on fire.</li>\n<li>Assume you can't—or won't—read.</li>\n<li>Wonder how you survive given your ancestry's typical gastronomic choices, reckless behavior, and love of fire.</li>\n</ul>\n<h2>Physical Description</h2>\n<p>Goblins are stumpy humanoids with large bodies, scrawny limbs, and massively oversized heads with large ears and beady red eyes. Their skin ranges from green to gray to blue, and they often bear scars, boils, and rashes. Goblins average 3 feet tall. Most are bald, with little or no body hair. Their jagged teeth fall out and regrow constantly, and their fast metabolism means they eat constantly and nap frequently. Mutations are also more common among goblins than other peoples, and goblins usually view particularly salient mutations as a sign of power or fortune.</p>\n<p>Goblins reach adolescence by the age of 3 and adulthood 4 or 5 years later. Goblins can live 50 years or more, but without anyone to protect them from each other or themselves, few live past 20 years of age.</p>\n<h2>Society</h2>\n<p>Goblins tend to flock to strong leaders, forming small tribes. These tribes rarely number more than a hundred, though the larger a tribe is, the more diligent the leader must be to keep order—a notoriously difficult task. As new threats rise across the Inner Sea region, many tribal elders have put aside their reckless ways in the hope of forging alliances that offer their people a greater chance at survival. Play and creativity matter more to goblins than productivity or study, and their encampments erupt with songs and laughter.</p>\n<p>Goblins bond closely with their allies, fiercely protecting those companions who have protected them or offered a sympathetic ear. Goblins tend to assume for their own protection that members of taller ancestries, which goblins often refer to colloquially as 'longshanks,' won't treat them kindly. Learning to trust longshanks is difficult for a goblin, and it's been only in recent years that such a partnership has even been an option. However, their attitude as a people is changing rapidly, and their short lifespans and poor memories help them adapt quickly.</p>\n<h2>Alignment and Religion</h2>\n<p>Even well-intentioned goblins have trouble following the rules, meaning they're rarely lawful. Most goblin adventurers are chaotic neutral or chaotic good. Organized worship confounds goblins, and most of them would rather pick their own deities, choosing powerful monsters, natural wonders, or anything else they find fascinating. Longshanks might have books upon books about the structures of divinity, but to a goblin, anything can be a god if you want it to. Goblins who spend time around people of other ancestries might adopt some of their beliefs, though, and many goblin adventurers adopt the worship of Cayden Cailean.</p>\n<h2>Adventurers</h2>\n<p>To some degree, almost every goblin is an adventurer, surviving life on the edge using skill and wits. Goblins explore and hunt for treasures by nature, though some become true adventurers in their own rights, often after being separated from their group or tribe.</p>\n<p>Goblins often have the acrobat, criminal, entertainer, gladiator, hunter, and street urchin backgrounds. Consider playing an alchemist, since many goblins love fire, or a bard, since many goblins love songs. As scrappy survivors, goblins are often rogues who dart about the shadows, though their inherently charismatic nature also draws them to the pursuit of magical classes such as sorcerer.</p>\n<h2>Names</h2>\n<p>Goblins keep their names simple. A good name should be easy to pronounce, short enough to shout without getting winded, and taste good to say. The namer often picks a word that rhymes with something they like so that writing songs is easier. Since there aren't any real traditions regarding naming in goblin culture, children often name themselves once they're old enough to do something resembling talking.</p>\n<h3><span style=\"text-decoration: underline;\">Sample Names</span></h3>\n<p>Ak, Bokker, Frum, Guzmuk, Krobby, Loohi, Mazmord, Neeka, Omgot, Ranzak, Rickle, Tup, Wakla, Yonk, Zibini</p>"
        },
        "flaws": {
            "0": {
                "value": [
                    "wis"
                ]
            }
        },
        "hp": 6,
        "items": {
            "xg07p": {
                "id": "HHVQDp61ehcpdiU8",
                "img": "systems/pf2e/icons/features/ancestry/darkvision.webp",
                "level": "1",
                "name": "Darkvision",
                "pack": "pf2e.ancestryfeatures"
            }
        },
        "languages": {
            "custom": "",
            "value": [
                "common",
                "goblin"
            ]
        },
        "reach": 5,
        "rules": [],
        "size": "sm",
        "source": {
            "value": ""
        },
        "speed": 25,
        "traits": {
            "custom": "",
            "rarity": {
                "value": "common"
            },
            "value": [
                "goblin",
                "humanoid"
            ]
        },
        "vision": "normal"
    },
    "effects": [],
    "flags": {},
    "img": "systems/pf2e/icons/default-icons/alternatives/ancestries/goblin.svg",
    "name": "Goblin",
    "permission": {
        "default": 0
    },
    "type": "ancestry"
}
