{
    "_id": "bv3Qel8v9tpoFbw4",
    "data": {
        "actionCategory": {
            "value": ""
        },
        "actionType": {
            "value": "passive"
        },
        "actions": {
            "value": ""
        },
        "description": {
            "chat": "",
            "unidentified": "",
            "value": "<p>You've learned how to dodge while wearing medium, light or no armor. Your proficiency ranks for medium armor, light armor and unarmored defense increase to expert.</p>"
        },
        "featType": {
            "value": "classfeature"
        },
        "level": {
            "value": 13
        },
        "location": "",
        "prerequisites": {
            "value": []
        },
        "rules": [],
        "source": {
            "value": ""
        },
        "traits": {
            "custom": "",
            "rarity": {
                "value": "common"
            },
            "value": [
                "alchemist"
            ]
        }
    },
    "effects": [
        {
            "_id": "yisFf1oUF3QbTniM",
            "changes": [
                {
                    "key": "data.martial.unarmored.rank",
                    "mode": 4,
                    "value": 2
                },
                {
                    "key": "data.martial.light.rank",
                    "mode": 4,
                    "value": 2
                },
                {
                    "key": "data.martial.medium.rank",
                    "mode": 4,
                    "value": 2
                }
            ],
            "disabled": false,
            "duration": {
                "rounds": null,
                "seconds": null,
                "startRound": null,
                "startTime": null,
                "startTurn": null,
                "turns": null
            },
            "flags": {},
            "icon": "systems/pf2e/icons/features/classes/light-armor-expertise.webp",
            "label": "Alchemist Armor Expertise (Level 13)",
            "origin": "",
            "tint": "",
            "transfer": true
        }
    ],
    "flags": {},
    "img": "systems/pf2e/icons/features/classes/light-armor-expertise.webp",
    "name": "Alchemist Armor Expertise (Level 13)",
    "permission": {
        "default": 0
    },
    "type": "feat"
}
