{
    "_id": "Jtn7IugykXDlIoZq",
    "data": {
        "actionCategory": {
            "value": ""
        },
        "actionType": {
            "value": "passive"
        },
        "actions": {
            "value": ""
        },
        "description": {
            "chat": "",
            "unidentified": "",
            "value": "<p>You turn the tables on foes who fumble, capitalizing immediately on their mistake. You gain the @Compendium[pf2e.actionspf2e.Opportune Riposte]{Opportune Riposte} reaction.</p>"
        },
        "featType": {
            "value": "classfeature"
        },
        "level": {
            "value": "3"
        },
        "prerequisites": {
            "value": []
        },
        "rules": [],
        "source": {
            "value": ""
        },
        "traits": {
            "custom": "",
            "rarity": {
                "value": "common"
            },
            "value": [
                "swashbuckler"
            ]
        }
    },
    "effects": [],
    "flags": {},
    "img": "systems/pf2e/icons/features/classes/opportune-riposte.webp",
    "name": "Opportune Riposte",
    "permission": {
        "default": 0
    },
    "type": "feat"
}
