{
    "_id": "sPtl05wwTpqFI0lL",
    "data": {
        "actionCategory": {
            "value": ""
        },
        "actionType": {
            "value": "passive"
        },
        "actions": {
            "value": ""
        },
        "description": {
            "chat": "",
            "unidentified": "",
            "value": "<p>If you need a specific alchemical item on the fly, you can use your infused reagents to quickly create it with the @Compendium[pf2e.actionspf2e.Quick Alchemy]{Quick Alchemy} action.</p>"
        },
        "featType": {
            "value": "classfeature"
        },
        "level": {
            "value": "1"
        },
        "prerequisites": {
            "value": []
        },
        "rules": [],
        "source": {
            "value": ""
        },
        "traits": {
            "custom": "",
            "rarity": {
                "value": "common"
            },
            "value": [
                "alchemist"
            ]
        }
    },
    "effects": [],
    "flags": {},
    "img": "systems/pf2e/icons/features/classes/quick-alchemy.webp",
    "name": "Quick Alchemy",
    "permission": {
        "default": 0
    },
    "type": "feat"
}
