{
    "_id": "SOan0fqyFTrkqJLV",
    "data": {
        "actionCategory": {
            "value": ""
        },
        "actionType": {
            "value": "passive"
        },
        "actions": {
            "value": ""
        },
        "description": {
            "chat": "",
            "unidentified": "",
            "value": "<p>A witch's knowledge from their patron comes in the form of lessons, which you can learn by selecting feats like Basic Lesson (page 101). Each lesson grants you a hex and teaches your familiar a new spell, adding it to the spells you can prepare using your witch spellcasting. You gain this spell even if it's not on your tradition's spell list.</p>\n<p><strong>BASIC LESSONS</strong></p>\n<p>You can select from these lessons when a feat or another effect grants you a basic lesson.</p>\n<p><strong>Lesson of Dreams:</strong> You gain the @Compendium[pf2e.spells-srd.Veil of Dreams]{Veil of Dreams} hex, and your familiar learns @Compendium[pf2e.spells-srd.Sleep]{Sleep}.</p>\n<p><strong>Lesson of the Elements:</strong> You gain the @Compendium[pf2e.spells-srd.Elemental Betrayal]{Elemental Betrayal} hex. Your familiar learns your choice of @Compendium[pf2e.spells-srd.Burning Hands]{Burning Hands}, @Compendium[pf2e.spells-srd.Air Bubble]{Air Bubble}, @Compendium[pf2e.spells-srd.Hydraulic Push]{Hydraulic Push}, or @Compendium[pf2e.spells-srd.Pummeling Rubble]{Pummeling Rubble}.</p>\n<p><strong>Lesson of Life:</strong> You gain the @Compendium[pf2e.spells-srd.Life Boost]{Life Boost} hex, and your familiar learns @Compendium[pf2e.spells-srd.Spirit Link]{Spirit Link}.</p>\n<p><strong>Lesson of Protection:</strong> You gain the @Compendium[pf2e.spells-srd.Blood Ward]{Blood Ward} hex; your familiar learns @Compendium[pf2e.spells-srd.Mage Armor]{Mage Armor}.</p>\n<p><strong>Lesson of Vengeance:</strong> You gain the @Compendium[pf2e.spells-srd.Needle of Vengeance]{Needle of Vengeance} hex, and your familiar learns @Compendium[pf2e.spells-srd.Phantom Pain]{Phantom Pain}.</p>\n<p><strong>GREATER LESSONS</strong></p>\n<p>You can select from these lessons when a feat or other effect grants you a greater lesson.</p>\n<p><strong>Lesson of Mischief:</strong> You gain the @Compendium[pf2e.spells-srd.Deceiver's Cloak]{Deceiver's Cloak} hex, and your familiar learns @Compendium[pf2e.spells-srd.Mad Monkeys]{Mad Monkeys}.</p>\n<p><strong>Lesson of Shadow:</strong> You gain the @Compendium[pf2e.spells-srd.Malicious Shadow]{Malicious Shadow} hex, and your familiar learns @Compendium[pf2e.spells-srd.Chilling Darkness]{Chilling Darkness}.</p>\n<p><strong>Lesson of Snow:</strong> You gain the @Compendium[pf2e.spells-srd.Personal Blizzard]{Personal Blizzard} hex, and your familiar learns @Compendium[pf2e.spells-srd.Wall of Wind]{Wall of Wind}.</p>\n<p><strong>MAJOR LESSONS</strong></p>\n<p>You can select from these lessons when a feat or other effect grants you a major lesson.</p>\n<p><strong>Lesson of Death:</strong> You gain the @Compendium[pf2e.spells-srd.Curse of Death]{Curse of Death} hex, and your familiar learns @Compendium[pf2e.spells-srd.Raise Dead]{Raise Dead}.</p>\n<p><strong>Lesson of Renewal:</strong> You gain the @Compendium[pf2e.spells-srd.Restorative Moment]{Restorative Moment} hex, and your familiar learns @Compendium[pf2e.spells-srd.Field of Life]{Field of Life}.</p>\n<p><strong>Lesson of Baba Yaga [RARE]</strong>: You gain the @Compendium[pf2e.spells-srd.Glacial Heart]{Glacial Heart} hex and your familiar learns @Compendium[pf2e.spells-srd.Wall of Ice]{Wall of Ice}.</p>"
        },
        "featType": {
            "value": "classfeature"
        },
        "level": {
            "value": "1"
        },
        "prerequisites": {
            "value": []
        },
        "rules": [],
        "source": {
            "value": ""
        },
        "traits": {
            "custom": "",
            "rarity": {
                "value": "common"
            },
            "value": [
                "witch"
            ]
        }
    },
    "effects": [],
    "flags": {},
    "img": "systems/pf2e/icons/features/classes/witch-lessons.webp",
    "name": "Witch Lessons",
    "permission": {
        "default": 0
    },
    "type": "feat"
}
