{
    "_id": "ckUOoqOM7Kg7VqxB",
    "data": {
        "ability": {
            "value": ""
        },
        "area": {
            "areaType": "",
            "value": null
        },
        "areasize": {
            "value": ""
        },
        "category": {
            "value": "spell"
        },
        "components": {
            "value": "somatic, verbal"
        },
        "cost": {
            "value": ""
        },
        "damage": {
            "applyMod": false,
            "value": ""
        },
        "damageType": {
            "value": ""
        },
        "description": {
            "chat": "",
            "unidentified": "",
            "value": "<p>You transform into an avatar of your deity, assuming a Huge battle form. You must have space to expand or the spell is lost. You have hands in this battle form and can take manipulate actions. You can Dismiss this spell. You gain the following statistics and abilities regardless of which deity's battle form you assume:</p>\n<ul>\n<li>AC = 25 + your level. Ignore your armor's check penalty and Speed reduction.</li>\n<li>30 temporary Hit Points.</li>\n<li>Darkvision.</li>\n<li>One or more attacks specific to your deity's battle form, which are the only attacks you can use. You're trained with them. Your attack modifier is +33, and you use the listed damage. Melee attacks are Strength based (for the purposes of the @Compendium[pf2e.conditionitems.Enfeebled]{Enfeebled} condition, for example) unless they have the finesse trait, and all ranged attacks are Dexterity based. Attacks that deal positive or negative damage don't heal creatures.</li>\n<li>Athletics modifier of +35, unless your own is higher.</li>\n</ul>\n<hr />\n<p>You also gain the specific abilities listed for your deity below:</p>\n<ul>\n<li><strong>Abadar</strong>\n<ul>\n<li>Speed 50 feet, burrow Speed 30 feet, immune to @Compendium[pf2e.conditionitems.Immobilized]{Immobilized};</li>\n<li><strong>Ranged</strong> <span class=\"pf2-icon\">a</span> crossbow (range increment 120 feet, reload 1), <strong>Damage</strong> 6d10+3 piercing.</li>\n</ul>\n</li>\n<li><strong>Achaekek</strong>\n<ul>\n<li>Speed 70 feet, climb Speed 50 feet, ignore difficult terrain and greater difficult terrain;</li>\n<li><strong>Melee</strong> <span class=\"pf2-icon\">a</span> mantis claw (agile, backswing, finesse, reach 15 feet, versatile P), <strong>Damage</strong> 6d8+6 slashing;</li>\n<li><strong>Ranged</strong> <span class=\"pf2-icon\">a</span> spine volley (range 60 feet), <strong>Damage</strong> 6d6+3 piercing</li>\n</ul>\n</li>\n<li><strong>Asmodeus</strong>\n<ul>\n<li>Speed 70 feet, air walk;</li>\n<li><strong>Melee</strong> <span class=\"pf2-icon\">a</span> mace (reach 15 feet), <strong>Damage</strong> 6d10+6 bludgeoning;</li>\n<li><strong>Ranged</strong> <span class=\"pf2-icon\">a</span> hell fire (range 120 feet), <strong>Damage</strong> 6d6+3 fire.</li>\n</ul>\n</li>\n<li><strong>Calistria</strong>\n<ul>\n<li>Speed 30 feet, fly Speed 70 feet;</li>\n<li><strong>Melee</strong> <span class=\"pf2-icon\">a</span> whip (disarm, finesse, nonlethal, reach 20 feet), <strong>Damage</strong> 6d4+6 slashing;</li>\n<li><strong>Ranged</strong> <span class=\"pf2-icon\">a</span> savored sting (range 60 feet), <strong>Damage</strong> 6d6+3 poison.</li>\n</ul>\n</li>\n<li><strong>Cayden Cailean</strong>\n<ul>\n<li>Speed 70 feet, air walk, ignore difficult terrain and greater difficult terrain;</li>\n<li><strong>Melee</strong> <span class=\"pf2-icon\">a</span> rapier (deadly, reach 15 feet), <strong>Damage</strong> 6d6+6 piercing;</li>\n<li><strong>Ranged</strong> <span class=\"pf2-icon\">a</span> ale splash (range 120 feet), <strong>Damage</strong> 6d6+3 poison.</li>\n</ul>\n</li>\n<li><strong>Desna</strong>\n<ul>\n<li>Speed 30 feet, fly Speed 70 feet;</li>\n<li><strong>Melee</strong> <span class=\"pf2-icon\">a</span> starknife (agile, deadly, finesse, reach 15 feet, silver, thrown 60 feet), <strong>Damage</strong> 6d4+6 piercing;</li>\n<li><strong>Ranged</strong> <span class=\"pf2-icon\">a</span> moonbeam (range 120 feet, silver), <strong>Damage</strong> 6d6+3 fire.</li>\n</ul>\n</li>\n<li><strong>Erastil</strong>\n<ul>\n<li>Speed 70 feet, air walk, ignore difficult terrain and greater difficult terrain;</li>\n<li><strong>Ranged</strong> <span class=\"pf2-icon\">a</span> longbow (deadly d8, range increment 150 feet), <strong>Damage</strong> 6d8+3 piercing.</li>\n</ul>\n</li>\n<li><strong>Gorum</strong>\n<ul>\n<li>Speed 70 feet, immune to @Compendium[pf2e.conditionitems.Immobilized]{Immobilized};</li>\n<li><strong>Melee</strong> <span class=\"pf2-icon\">a</span> greatsword (versatile P, reach 15 feet), <strong>Damage</strong> 6d12+6 slashing.</li>\n</ul>\n</li>\n<li><strong>Gozreh</strong>\n<ul>\n<li>no land Speed, fly Speed 70 feet, swim Speed 70 feet, ignore difficult terrain and greater difficult terrain;</li>\n<li><strong>Melee</strong> <span class=\"pf2-icon\">a</span> waves (bull rush, reach 15 feet, thrown 20 feet), <strong>Damage</strong> 6d8+6 bludgeoning;</li>\n<li><strong>Ranged</strong> <span class=\"pf2-icon\">a</span> wind (versatile electricity, range 120 feet), <strong>Damage</strong> 6d6+3 bludgeoning.</li>\n</ul>\n</li>\n<li><strong>Iomedae</strong>\n<ul>\n<li>Speed 70 feet, air walk; shield (15 Hardness, can't be damaged);</li>\n<li><strong>Melee</strong> <span class=\"pf2-icon\">a</span> longsword (versatile P, reach 15 feet), <strong>Damage</strong> 6d8+6 slashing.</li>\n</ul>\n</li>\n<li><strong>Irori</strong>\n<ul>\n<li>Speed 80 feet, air walk;</li>\n<li><strong>Melee</strong> <span class=\"pf2-icon\">a</span> unfettered strike (agile, versatile P or S, finesse, reach 15 feet), <strong>Damage</strong> 6d8+6 bludgeoning;</li>\n<li><strong>Ranged</strong> <span class=\"pf2-icon\">a</span> wind strike (range 60 feet), <strong>Damage</strong> 6d4+6 bludgeoning.</li>\n</ul>\n</li>\n<li><strong>Lamashtu</strong>\n<ul>\n<li>Speed 30 feet, fly Speed 70 feet;</li>\n<li><strong>Melee</strong> <span class=\"pf2-icon\">a</span> falchion (forceful, reach 15 feet), <strong>Damage</strong> 6d10+6 slashing;</li>\n<li><strong>Ranged</strong> <span class=\"pf2-icon\">a</span> waters of Lamashtu (range 120 feet), <strong>Damage</strong> 6d6+3 poison.</li>\n</ul>\n</li>\n<li><strong>Nethys</strong>\n<ul>\n<li>Speed 70 feet, air walk;</li>\n<li><strong>Ranged</strong> <span class=\"pf2-icon\">a</span> raw magic (range 120 feet; versatile cold, electricity, or fire), <strong>Damage</strong> 6d6 force.</li>\n</ul>\n</li>\n<li><strong>Norgorber</strong>\n<ul>\n<li>Speed 70 feet, air walk, ignore difficult terrain and greater difficult terrain;</li>\n<li><strong>Melee</strong> <span class=\"pf2-icon\">a</span> shortsword (agile, finesse, versatile S, reach 15 feet), <strong>Damage</strong> 6d6+6 piercing;</li>\n<li><strong>Ranged</strong> <span class=\"pf2-icon\">a</span> blackfinger toss (range 120 feet), <strong>Damage</strong> 6d6+3 poison.</li>\n</ul>\n</li>\n<li><strong>Pharasma</strong>\n<ul>\n<li>Speed 70 feet, air walk;</li>\n<li><strong>Melee</strong> <span class=\"pf2-icon\">a</span> dagger (agile, finesse, reach 15 feet, thrown 40 feet), <strong>Damage</strong> 6d6+6 slashing;</li>\n<li><strong>Ranged</strong> <span class=\"pf2-icon\">a</span> spiral blast (range 120 feet, damages only undead), <strong>Damage</strong> 6d8+3 positive.</li>\n</ul>\n</li>\n<li><strong>Rovagug</strong>\n<ul>\n<li>Speed 50 feet, burrow Speed 30 feet, immune to @Compendium[pf2e.conditionitems.Immobilized]{Immobilized};</li>\n<li><strong>Melee</strong> <span class=\"pf2-icon\">a</span> jaws(reach 15 feet), <strong>Damage</strong> 6d12+6 piercing;</li>\n<li><strong>Melee</strong> <span class=\"pf2-icon\">a</span> leg (agile, versatile P, reach 15 feet), <strong>Damage</strong> 6d8+6 bludgeoning.</li>\n</ul>\n</li>\n<li><strong>Sarenrae</strong>\n<ul>\n<li>Speed 30 feet, fly Speed 70 feet;</li>\n<li><strong>Melee</strong> <span class=\"pf2-icon\">a</span> scimitar (forceful, nonlethal, reach 15 feet), <strong>Damage</strong> 6d6+6 slashing;</li>\n<li><strong>Ranged</strong> <span class=\"pf2-icon\">a</span> everflame (nonlethal, range 120 feet), <strong>Damage</strong> 6d6+3 fire.</li>\n</ul>\n</li>\n<li><strong>Shelyn</strong>\n<ul>\n<li>Speed 70 feet, air walk, ignore difficult terrain and greater difficult terrain;</li>\n<li><strong>Melee</strong> <span class=\"pf2-icon\">a</span> glaive (deadly d8, nonlethal, reach 20 feet), <strong>Damage</strong> 6d8+6 slashing;</li>\n<li><strong>Ranged</strong> <span class=\"pf2-icon\">a</span> melody of inner beauty, (nonlethal, range 120 feet), <strong>Damage</strong> 6d6+3 sonic.</li>\n</ul>\n</li>\n<li><strong>Torag</strong>\n<ul>\n<li>Speed 50 feet, burrow Speed 30 feet, immune to @Compendium[pf2e.conditionitems.Immobilized]{Immobilized}; shield (15 Hardness, can't be damaged);</li>\n<li><strong>Melee</strong> <span class=\"pf2-icon\">a</span> warhammer (bull rush, reach 15 feet), <strong>Damage</strong> 6d8+6 bludgeoning.</li>\n</ul>\n</li>\n<li><strong>Urgathoa</strong>\n<ul>\n<li>Speed 70 feet, air walk;</li>\n<li><strong>Melee</strong> <span class=\"pf2-icon\">a</span> scythe (deadly d10, trip, reach 15 feet), <strong>Damage</strong> 6d10+6 slashing;</li>\n<li><strong>Ranged</strong> <span class=\"pf2-icon\">a</span> pallid plague (range 120 feet), <strong>Damage</strong> 6d6+3 negative.</li>\n</ul>\n</li>\n<li><strong>Zon-Kuthon</strong>\n<ul>\n<li>Speed 70 feet, air walk, ignore difficult terrain and greater difficult terrain;</li>\n<li><strong>Melee</strong> <span class=\"pf2-icon\">a</span> spiked chain (disarm, trip, reach 15 feet), <strong>Damage</strong> 6d8+6 slashing;</li>\n<li><strong>Ranged</strong> <span class=\"pf2-icon\">a</span> midnight pain (mental, nonlethal, range 120 feet), <strong>Damage</strong> 6d6+3 mental.</li>\n</ul>\n</li>\n</ul>"
        },
        "duration": {
            "value": "1 minute"
        },
        "hasCounteractCheck": {
            "value": false
        },
        "level": {
            "value": 10
        },
        "location": {
            "value": ""
        },
        "materials": {
            "value": ""
        },
        "prepared": {
            "value": ""
        },
        "primarycheck": {
            "value": ""
        },
        "range": {
            "value": ""
        },
        "rules": [],
        "save": {
            "basic": "",
            "value": ""
        },
        "scaling": {
            "formula": "",
            "mode": "none"
        },
        "school": {
            "value": "transmutation"
        },
        "secondarycasters": {
            "value": ""
        },
        "secondarycheck": {
            "value": ""
        },
        "source": {
            "value": ""
        },
        "spellType": {
            "value": "utility"
        },
        "sustained": {
            "value": false
        },
        "target": {
            "value": ""
        },
        "time": {
            "value": "1"
        },
        "traditions": {
            "value": [
                "divine"
            ]
        },
        "traits": {
            "custom": "",
            "rarity": {
                "value": "common"
            },
            "value": [
                "polymorph",
                "transmutation"
            ]
        }
    },
    "effects": [],
    "flags": {},
    "img": "systems/pf2e/icons/spells/avatar.webp",
    "name": "Avatar",
    "permission": {
        "default": 0
    },
    "type": "spell"
}
