{
    "_id": "MraZBLJ4Be3ogmWL",
    "data": {
        "ability": {
            "value": ""
        },
        "area": {
            "value": ""
        },
        "areasize": {
            "value": ""
        },
        "category": {
            "value": "focus"
        },
        "components": {
            "value": "Somatic"
        },
        "cost": {
            "value": ""
        },
        "damage": {
            "applyMod": false,
            "value": "1d4"
        },
        "damageType": {
            "value": "cold"
        },
        "description": {
            "chat": "",
            "unidentified": "",
            "value": "<p>Freezing sleet and heavy snowfall collect on the target's feet and legs, dealing [[/r 1d4 #cold]] cold damage and other effects depending on its Reflex save. Once this spell ends, the target becomes temporarily immune for 1 minute.</p>\n<hr />\n<p><strong>Critical Success</strong> The target is unaffected.</p>\n<p><strong>Success</strong> The target takes half damage.</p>\n<p><strong>Failure</strong> The target takes full damage, and takes a -5-foot circumstance penalty to its Speeds until the spell ends</p>\n<p><strong>Critical Failure</strong> The target takes double damage and a -10-foot circumstance penalty to its Speeds until the spell ends.</p>\n<hr />\n<p><strong>Heightened (+1)</strong> The damage increases by [[/r 1d4 #cold]].</p>"
        },
        "duration": {
            "value": "sustained, up to 1 minute"
        },
        "hasCounteractCheck": {
            "value": false
        },
        "level": {
            "value": 0
        },
        "location": {
            "value": ""
        },
        "materials": {
            "value": ""
        },
        "prepared": {
            "value": ""
        },
        "primarycheck": {
            "value": ""
        },
        "range": {
            "value": "30 feet"
        },
        "rules": [],
        "save": {
            "basic": "basic",
            "value": "reflex"
        },
        "scaling": {
            "formula": "1d4",
            "mode": "level1"
        },
        "school": {
            "value": "conjuration"
        },
        "secondarycasters": {
            "value": ""
        },
        "secondarycheck": {
            "value": ""
        },
        "source": {
            "value": ""
        },
        "spellType": {
            "value": "save"
        },
        "sustained": {
            "value": false
        },
        "target": {
            "value": "1 creature"
        },
        "time": {
            "value": "1"
        },
        "traditions": {
            "value": []
        },
        "traits": {
            "custom": "",
            "rarity": {
                "value": "uncommon"
            },
            "value": [
                "cantrip",
                "cold",
                "conjuration",
                "witch"
            ]
        }
    },
    "effects": [],
    "flags": {},
    "img": "systems/pf2e/icons/spells/clinging-ice.webp",
    "name": "Clinging Ice",
    "permission": {
        "default": 0
    },
    "type": "spell"
}
