{
    "_id": "wTYxxYJWN348oV15",
    "data": {
        "ability": {
            "value": ""
        },
        "area": {
            "value": ""
        },
        "areasize": {
            "value": ""
        },
        "category": {
            "value": "focus"
        },
        "components": {
            "value": "somatic, verbal"
        },
        "cost": {
            "value": ""
        },
        "damage": {
            "applyMod": false,
            "value": ""
        },
        "damageType": {
            "value": ""
        },
        "description": {
            "chat": "",
            "unidentified": "",
            "value": "<p>You make an attack filled with a medusa's petrifying power. Make an unarmed Strike with the following additional effects.</p>\n<hr />\n<p><strong>Critical Success</strong> The target is @Compendium[pf2e.conditionitems.Slowed]{Slowed 2} and must attempt a Fortitude save at the end of each of its turns; this ongoing save has the incapacitation trait.</p>\n<p>On a failed save, the Slowed condition increases by 1 (2 on a critical failure). A successful save reduces the Slowed condition by 1. When a creature is unable to act due to the Slowed condition from medusa's wrath, it is @Compendium[pf2e.conditionitems.Petrified]{Petrified} permanently. The spell ends if the creature is Petrified or the Slowed condition is removed.</p>\n<p><strong>Success</strong> As critical success, but the target is initially @Compendium[pf2e.conditionitems.Slowed]{Slowed 1}.</p>"
        },
        "duration": {
            "value": ""
        },
        "hasCounteractCheck": {
            "value": false
        },
        "level": {
            "value": 8
        },
        "location": {
            "value": ""
        },
        "materials": {
            "value": ""
        },
        "prepared": {
            "value": ""
        },
        "primarycheck": {
            "value": ""
        },
        "range": {
            "value": ""
        },
        "rules": [],
        "save": {
            "basic": "",
            "value": ""
        },
        "scaling": {
            "formula": "",
            "mode": "none"
        },
        "school": {
            "value": "transmutation"
        },
        "secondarycasters": {
            "value": ""
        },
        "secondarycheck": {
            "value": ""
        },
        "source": {
            "value": ""
        },
        "spellType": {
            "value": "utility"
        },
        "sustained": {
            "value": false
        },
        "target": {
            "value": ""
        },
        "time": {
            "value": "2"
        },
        "traditions": {
            "value": []
        },
        "traits": {
            "custom": "",
            "rarity": {
                "value": "uncommon"
            },
            "value": [
                "monk",
                "transmutation"
            ]
        }
    },
    "effects": [],
    "flags": {},
    "img": "systems/pf2e/icons/spells/medusas-wrath.webp",
    "name": "Medusa's Wrath",
    "permission": {
        "default": 0
    },
    "type": "spell"
}
