{
    "_id": "KPDHmmjJiw7PhTYF",
    "data": {
        "ability": {
            "value": ""
        },
        "area": {
            "areaType": "",
            "value": null
        },
        "areasize": {
            "value": ""
        },
        "category": {
            "value": "spell"
        },
        "components": {
            "value": "material, somatic, verbal"
        },
        "cost": {
            "value": ""
        },
        "damage": {
            "applyMod": false,
            "value": ""
        },
        "damageType": {
            "value": ""
        },
        "description": {
            "chat": "",
            "unidentified": "",
            "value": "<p><span>You conjure a towering mansion up to four stories tall and up to 300 feet on a side. While Casting the Spell, you hold an image of the mansion and its desired appearance in your mind. The mansion can contain as many or as few rooms as you desire, and it is decorated as you imagine it. You can imagine a purpose for each room of the mansion, and the proper accouterments appear within. Any furniture or other mundane fixtures function normally for anyone inside the mansion, but they cease to exist if taken beyond its walls. No fixture created with this spell can create magical effects, but magical devices brought into the mansion function normally.<br /></span></p>\n<p><span>Your mansion contains the same types and quantities of foodstuffs and servants as created by the @Compendium[pf2e.spells-srd.Magnificent Mansion]{Magnificent Mansion} spell.<br /></span></p>\n<p><span>Each of the mansion's exterior doorways and windows are protected by @Compendium[pf2e.spells-srd.Alarm]{Alarm} spells. You choose whether each alarm is audible or mental as you Cast the Spell, and each has a different sound (for an audible alarm) or sensation (for a mental one), allowing you to instantly determine which portal has been used.</span></p>"
        },
        "duration": {
            "value": "until the next time you make your daily preparations"
        },
        "hasCounteractCheck": {
            "value": false
        },
        "level": {
            "value": 9
        },
        "location": {
            "value": ""
        },
        "materials": {
            "value": ""
        },
        "prepared": {
            "value": ""
        },
        "primarycheck": {
            "value": ""
        },
        "range": {
            "value": "500 feet"
        },
        "rules": [],
        "save": {
            "basic": "",
            "value": ""
        },
        "scaling": {
            "formula": "",
            "mode": "none"
        },
        "school": {
            "value": "conjuration"
        },
        "secondarycasters": {
            "value": ""
        },
        "secondarycheck": {
            "value": ""
        },
        "source": {
            "value": ""
        },
        "spellType": {
            "value": "utility"
        },
        "sustained": {
            "value": false
        },
        "target": {
            "value": ""
        },
        "time": {
            "value": "1 minute"
        },
        "traditions": {
            "value": [
                "arcane",
                "occult"
            ]
        },
        "traits": {
            "custom": "",
            "rarity": {
                "value": "common"
            },
            "value": [
                "conjuration"
            ]
        }
    },
    "effects": [],
    "flags": {},
    "img": "systems/pf2e/icons/spells/resplendent-mansion.webp",
    "name": "Resplendent Mansion",
    "permission": {
        "default": 0
    },
    "type": "spell"
}
