{
    "_id": "NNoKWiWKqJkdD2ln",
    "data": {
        "ability": {
            "value": ""
        },
        "area": {
            "value": ""
        },
        "areasize": {
            "value": ""
        },
        "category": {
            "value": "focus"
        },
        "components": {
            "value": "Somatic"
        },
        "cost": {
            "value": ""
        },
        "damage": {
            "applyMod": false,
            "value": ""
        },
        "damageType": {
            "value": ""
        },
        "description": {
            "chat": "",
            "unidentified": "",
            "value": "<p>You draw the target into a drowsy state, causing daydreams and sluggishness. The target must attempt a Will save.</p>\n<hr />\n<p><strong>Critical Success</strong>: The target is unaffected.</p>\n<p><strong>Success</strong>: The target takes a -1 status penalty to Perception, attack rolls, and Will saves. This penalty increases to -2 for Will saves against sleep effects.</p>\n<p><strong>Failure</strong>: As success, and any time the target uses a concentrate action, it must succeed at a DC 5 flat check or the action is disrupted.</p>"
        },
        "duration": {
            "value": "Sustained up to 1 minute"
        },
        "hasCounteractCheck": {
            "value": false
        },
        "level": {
            "value": 1
        },
        "location": {
            "value": "gj8uSdGt5Fbk1fGz"
        },
        "materials": {
            "value": ""
        },
        "prepared": {
            "value": ""
        },
        "primarycheck": {
            "value": ""
        },
        "range": {
            "value": "30 feet"
        },
        "rules": [],
        "save": {
            "basic": "",
            "value": "will"
        },
        "scaling": {
            "formula": "",
            "mode": "none"
        },
        "school": {
            "value": "enchantment"
        },
        "secondarycasters": {
            "value": ""
        },
        "secondarycheck": {
            "value": ""
        },
        "source": {
            "value": ""
        },
        "spellType": {
            "value": "save"
        },
        "sustained": {
            "value": false
        },
        "target": {
            "value": "1 creature"
        },
        "time": {
            "value": "1"
        },
        "traditions": {
            "value": []
        },
        "traits": {
            "custom": "",
            "rarity": {
                "value": "uncommon"
            },
            "selected": {
                "custom": "Hex",
                "enchantment": "Enchantment",
                "mental": "Mental",
                "witch": "Witch"
            },
            "value": [
                "enchantment",
                "mental",
                "witch",
                "hex"
            ]
        }
    },
    "effects": [],
    "flags": {},
    "img": "systems/pf2e/icons/spells/veil-of-dreams.webp",
    "name": "Veil of Dreams",
    "permission": {
        "default": 0
    },
    "type": "spell"
}
