{
    "_id": "jBGAYmR0BkkbpJvG",
    "data": {
        "ability": {
            "value": ""
        },
        "area": {
            "areaType": "burst",
            "value": 30
        },
        "areasize": {
            "value": "30-foot burst"
        },
        "category": {
            "value": "spell"
        },
        "components": {
            "value": "material, somatic, verbal"
        },
        "cost": {
            "value": ""
        },
        "damage": {
            "applyMod": false,
            "value": "8d8"
        },
        "damageType": {
            "value": "mental"
        },
        "description": {
            "chat": "",
            "unidentified": "",
            "value": "<p>An illusion of horrific creatures fills the spell's area. The creatures look like Tiny swarming monsters with a specific appearance of your choice, such as Hellish flies or animated saw blades. The burst deals 8d8 mental damage (basic Will save) to each creature that's inside the burst when it's created, enters the burst, or starts its turn inside the burst. A creature that critically succeeds at its will save can immediately attempt to disbelieve the illusion. A creature that tries to Interact with the monsters or observes one with a Seek action can attempt to disbelieve the illusion. Creatures that disbelieve the illusion take no damage from the illusion thereafter.</p>\n<hr />\n<p><strong>Heightened (+1)</strong> The mental damage increases by 1d8.</p>"
        },
        "duration": {
            "value": "1 minute"
        },
        "hasCounteractCheck": {
            "value": false
        },
        "level": {
            "value": 7
        },
        "location": {
            "value": ""
        },
        "materials": {
            "value": ""
        },
        "prepared": {
            "value": ""
        },
        "primarycheck": {
            "value": ""
        },
        "range": {
            "value": "500 feet"
        },
        "rules": [],
        "save": {
            "basic": "basic",
            "value": "will"
        },
        "scaling": {
            "formula": "1d8",
            "mode": "level1"
        },
        "school": {
            "value": "illusion"
        },
        "secondarycasters": {
            "value": ""
        },
        "secondarycheck": {
            "value": ""
        },
        "source": {
            "value": ""
        },
        "spellType": {
            "value": "save"
        },
        "sustained": {
            "value": false
        },
        "target": {
            "value": ""
        },
        "time": {
            "value": "3"
        },
        "traditions": {
            "value": [
                "occult"
            ]
        },
        "traits": {
            "custom": "",
            "rarity": {
                "value": "common"
            },
            "value": [
                "auditory",
                "illusion",
                "visual"
            ]
        }
    },
    "effects": [],
    "flags": {},
    "img": "systems/pf2e/icons/spells/visions-of-danger.webp",
    "name": "Visions of Danger",
    "permission": {
        "default": 0
    },
    "type": "spell"
}
