{
    "_id": "8RWfKConLYFZpQ9X",
    "data": {
        "ability": {
            "value": ""
        },
        "area": {
            "areaType": "",
            "value": null
        },
        "areasize": {
            "value": ""
        },
        "category": {
            "value": "focus"
        },
        "components": {
            "value": "somatic, verbal"
        },
        "cost": {
            "value": ""
        },
        "damage": {
            "applyMod": false,
            "value": ""
        },
        "damageType": {
            "value": ""
        },
        "description": {
            "chat": "",
            "unidentified": "",
            "value": "<p>You infuse yourself with primal essence and transform into another form.</p>\n<p>You can polymorph into any form listed in @Compendium[pf2e.spells-srd.Pest Form]{Pest Form}, which lasts 10 minutes. All other wild shape forms last 1 minute. You can add more forms to your wild shape list with druid feats; your feat might grant you some or all of the forms from a given polymorph spell.</p>\n<p>When you transform into a form granted by a spell, you gain all the effects of the form you chose from a version of the spell heightened to wild shape's level.</p>\n<p>Wild shape allows you to use your own shapeshifting training more easily than most polymorph spells. When you choose to use your own attack modifier while polymorphed instead of the form's default attack modifier, you gain a +2 status bonus to your attack rolls.</p>\n<hr />\n<p><strong>Heightened (2nd)</strong> You can also wild shape into the forms listed in @Compendium[pf2e.spells-srd.Animal Form]{Animal Form}.</p>"
        },
        "duration": {
            "value": "1 minute (or longer)"
        },
        "hasCounteractCheck": {
            "value": false
        },
        "level": {
            "value": 1
        },
        "location": {
            "value": ""
        },
        "materials": {
            "value": ""
        },
        "prepared": {
            "value": ""
        },
        "primarycheck": {
            "value": ""
        },
        "range": {
            "value": ""
        },
        "rules": [
            {
                "key": "PF2E.RuleElement.ToggleProperty",
                "label": "Use your own attack proficiency with Wild Shape",
                "property": "flags.pf2e.rollOptions.attack-roll.own-modifier"
            },
            {
                "key": "PF2E.RuleElement.FlatModifier",
                "predicate": {
                    "all": [
                        "own-modifier",
                        "polymorph"
                    ]
                },
                "roll-options": [
                    "all"
                ],
                "selector": "attack",
                "type": "status",
                "value": 2
            }
        ],
        "save": {
            "basic": "",
            "value": ""
        },
        "scaling": {
            "formula": "",
            "mode": "none"
        },
        "school": {
            "value": "transmutation"
        },
        "secondarycasters": {
            "value": ""
        },
        "secondarycheck": {
            "value": ""
        },
        "source": {
            "value": ""
        },
        "spellType": {
            "value": "utility"
        },
        "sustained": {
            "value": false
        },
        "target": {
            "value": ""
        },
        "time": {
            "value": "2"
        },
        "traditions": {
            "value": []
        },
        "traits": {
            "custom": "",
            "rarity": {
                "value": "uncommon"
            },
            "value": [
                "druid",
                "polymorph",
                "transmutation"
            ]
        }
    },
    "effects": [],
    "flags": {},
    "img": "systems/pf2e/icons/spells/wild-shape.webp",
    "name": "Wild Shape",
    "permission": {
        "default": 0
    },
    "type": "spell"
}
