{
    "_id": "dtNsRAhCRfteA1ev",
    "data": {
        "actionCategory": {
            "value": ""
        },
        "actionType": {
            "value": "passive"
        },
        "actions": {
            "value": ""
        },
        "description": {
            "chat": "",
            "unidentified": "",
            "value": "<p>Your small, blunt snout and labyrinthine sinus system make you resistant to phenomena that assail the nose. When you roll a saving throw against inhaled threats (such as inhaled poisons) and olfactory effects (such as xulgath stench), you get the outcome one degree of success better than the result of your roll.</p>"
        },
        "featType": {
            "value": "ancestryfeature"
        },
        "level": {
            "value": 1
        },
        "location": "",
        "prerequisites": {
            "value": []
        },
        "rules": [
            {
                "key": "PF2E.RuleElement.Note",
                "predicate": {
                    "any": [
                        "inhaled",
                        "olfactory"
                    ]
                },
                "selector": "saving-throw",
                "text": "<p class='compact-text'><strong>{item|name}</strong> When you roll a saving throw against an olfactory or inhaled effect, you get the outcome one degree of success better than the result of your roll.</p>"
            }
        ],
        "source": {
            "value": ""
        },
        "traits": {
            "custom": "",
            "rarity": {
                "value": "common"
            },
            "selected": {
                "shoony": "Shoony"
            },
            "value": [
                "shoony"
            ]
        }
    },
    "effects": [],
    "flags": {},
    "img": "systems/pf2e/icons/features/ancestry/fishseeker-shoony.webp",
    "name": "Blunt Snout",
    "permission": {
        "default": 0
    },
    "type": "feat"
}
