{
    "_id": "yNTePhAPVMguqUVA",
    "data": {
        "actionCategory": {
            "value": ""
        },
        "actionType": {
            "value": "free"
        },
        "actions": {
            "value": ""
        },
        "description": {
            "chat": "",
            "unidentified": "",
            "value": "<p><strong>[Generic]</strong><strong>][Limited Use]</strong> □□□</p>\n<p><strong>Effect</strong>: You have garnered some unique experience with the unusual technology of Numeria. You can use the following free action by checking off a box next to this boon.</p>\n<p><span style=\"text-decoration: underline;\">Technological Defence</span></p>\n<p><strong>Action</strong>: Free Action</p>\n<p><strong>Trigger</strong>:You attempt a saving throw against a technological weapon or effect, but you haven't rolled it yet.</p>\n<p><strong>Effect</strong>: You gain a +1 circumstance bonus to the saving throw.</p>"
        },
        "featType": {
            "value": "pfsboon"
        },
        "level": {
            "value": "0"
        },
        "prerequisites": {
            "value": []
        },
        "rules": [],
        "source": {
            "value": ""
        },
        "traits": {
            "custom": "",
            "rarity": {
                "value": "common"
            },
            "selected": {},
            "value": []
        }
    },
    "effects": [],
    "flags": {},
    "img": "systems/pf2e/icons/default-icons/mystery-man.webp",
    "name": "S1-Q08 - Numerian Archaeologist",
    "permission": {
        "default": 0
    },
    "type": "feat"
}
